%!PS-Adobe-3.0 EPSF-3.0
%%Creator: cairo 1.16.0 (https://cairographics.org)
%%CreationDate: Sun Nov 28 20:09:28 2021
%%Pages: 1
%%DocumentData: Clean7Bit
%%LanguageLevel: 2
%%BoundingBox: 0 0 761 137
%%EndComments
%%BeginProlog
50 dict begin
/q { gsave } bind def
/Q { grestore } bind def
/cm { 6 array astore concat } bind def
/w { setlinewidth } bind def
/J { setlinecap } bind def
/j { setlinejoin } bind def
/M { setmiterlimit } bind def
/d { setdash } bind def
/m { moveto } bind def
/l { lineto } bind def
/c { curveto } bind def
/h { closepath } bind def
/re { exch dup neg 3 1 roll 5 3 roll moveto 0 rlineto
      0 exch rlineto 0 rlineto closepath } bind def
/S { stroke } bind def
/f { fill } bind def
/f* { eofill } bind def
/n { newpath } bind def
/W { clip } bind def
/W* { eoclip } bind def
/BT { } bind def
/ET { } bind def
/BDC { mark 3 1 roll /BDC pdfmark } bind def
/EMC { mark /EMC pdfmark } bind def
/cairo_store_point { /cairo_point_y exch def /cairo_point_x exch def } def
/Tj { show currentpoint cairo_store_point } bind def
/TJ {
  {
    dup
    type /stringtype eq
    { show } { -0.001 mul 0 cairo_font_matrix dtransform rmoveto } ifelse
  } forall
  currentpoint cairo_store_point
} bind def
/cairo_selectfont { cairo_font_matrix aload pop pop pop 0 0 6 array astore
    cairo_font exch selectfont cairo_point_x cairo_point_y moveto } bind def
/Tf { pop /cairo_font exch def /cairo_font_matrix where
      { pop cairo_selectfont } if } bind def
/Td { matrix translate cairo_font_matrix matrix concatmatrix dup
      /cairo_font_matrix exch def dup 4 get exch 5 get cairo_store_point
      /cairo_font where { pop cairo_selectfont } if } bind def
/Tm { 2 copy 8 2 roll 6 array astore /cairo_font_matrix exch def
      cairo_store_point /cairo_font where { pop cairo_selectfont } if } bind def
/g { setgray } bind def
/rg { setrgbcolor } bind def
/d1 { setcachedevice } bind def
/cairo_data_source {
  CairoDataIndex CairoData length lt
    { CairoData CairoDataIndex get /CairoDataIndex CairoDataIndex 1 add def }
    { () } ifelse
} def
/cairo_flush_ascii85_file { cairo_ascii85_file status { cairo_ascii85_file flushfile } if } def
/cairo_image { image cairo_flush_ascii85_file } def
/cairo_imagemask { imagemask cairo_flush_ascii85_file } def
%%EndProlog
%%BeginSetup
%%EndSetup
%%Page: 1 1
%%BeginPageSetup
%%PageBoundingBox: 0 0 761 137
%%EndPageSetup
q 0 0 761 137 rectclip
1 0 0 -1 0 137 cm q
1 g
1.418 1.418 117.02 108.688 re f
0 g
2.834643 w
0 J
0 j
[] 0.0 d
4 M q 1 0 0 1 0 0 cm
1.418 1.418 117.02 108.688 re S Q
0.196078 g
1.417322 w
q 1 0 0 1 0 0 cm
48.957 67.035 m 86.695 67.035 l S Q
89.965 67.035 m 85.062 69.871 l 85.062 64.199 l h
89.965 67.035 m f*
0.755905 w
q 1 0 0 1 0 0 cm
89.965 67.035 m 85.062 69.871 l 85.062 64.199 l h
89.965 67.035 m S Q
1.417322 w
q 1 0 0 1 0 0 cm
48.957 67.035 m 48.957 29.301 l S Q
48.957 26.027 m 51.793 30.934 l 46.125 30.934 l h
48.957 26.027 m f*
0.755905 w
q 0 -1 1 0 0 0 cm
-26.027 48.957 m -30.934 51.793 l -30.934 46.125 l h
-26.027 48.957 m S Q
1.417322 w
q 1 0 0 1 0 0 cm
48.957 67.035 m 32.027 83.445 l S Q
29.676 85.723 m 31.227 80.273 l 35.172 84.344 l h
29.676 85.723 m f*
0.542813 w
q -1 0.969149 -0.969149 -1 0 0 cm
27.538 -59.035 m 24.015 -57 l 24.014 -61.07 l h
27.538 -59.035 m S Q
1 g
321.695 1.418 117.02 108.688 re f
0 g
2.834646 w
q 1 0 0 1 0 0 cm
321.695 1.418 117.02 108.688 re S Q
0.196078 g
1.417323 w
q 1 0 0 1 0 0 cm
352.203 75.91 m 389.938 75.91 l S Q
0.392157 g
393.207 75.91 m 388.305 78.742 l 388.305 73.074 l h
393.207 75.91 m f*
0.755906 w
q 1 0 0 1 0 0 cm
393.207 75.91 m 388.305 78.742 l 388.305 73.074 l h
393.207 75.91 m S Q
0.196078 g
1.417323 w
q 1 0 0 1 0 0 cm
352.203 75.91 m 352.203 38.176 l S Q
0.392157 g
352.203 34.902 m 355.035 39.805 l 349.367 39.805 l h
352.203 34.902 m f*
0.755906 w
q 0 -1 1 0 0 0 cm
-34.902 352.203 m -39.805 355.035 l -39.805 349.367 l h
-34.902 352.203 m S Q
0.196078 g
1.417323 w
q 1 0 0 1 0 0 cm
352.203 75.91 m 335.27 92.32 l S Q
0.392157 g
332.918 94.598 m 334.469 89.148 l 338.414 93.219 l h
332.918 94.598 m f*
0.542813 w
q -1 0.969149 -0.969149 -1 0 0 cm
-124.398 -215.158 m -127.921 -213.123 l -127.921 -217.193 l h
-124.398 -215.158 m S Q
1.417322 w
q -1 0 0 -1 0 0 cm
-401.672 -44.07 m -363.938 -44.07 l S Q
360.668 44.07 m 365.57 41.234 l 365.57 46.902 l h
360.668 44.07 m f*
0.755905 w
q -1 0 0 -1 0 0 cm
-360.668 -44.07 m -365.57 -41.234 l -365.57 -46.902 l h
-360.668 -44.07 m S Q
1.417322 w
q -1 0 0 -1 0 0 cm
-401.672 -44.07 m -401.672 -81.805 l S Q
401.672 85.074 m 398.84 80.172 l 404.508 80.172 l h
401.672 85.074 m f*
0.755905 w
q 0 1 -1 0 0 0 cm
85.074 -401.672 m 80.172 -398.84 l 80.172 -404.508 l h
85.074 -401.672 m S Q
1.417322 w
q -1 0 0 -1 0 0 cm
-401.672 -44.07 m -418.605 -27.66 l S Q
420.957 25.383 m 419.406 30.832 l 415.461 26.758 l h
420.957 25.383 m f*
0.542813 w
q 1 -0.969149 0.969149 1 0 0 cm
204.387 223.464 m 200.864 225.499 l 200.866 221.427 l h
204.387 223.464 m S Q
0 g
1.417322 w
q -1 0 0 -1 0 0 cm
-363.578 -68.742 m -387.422 -55.227 l S Q
390.266 53.613 m 387.398 58.5 l 384.602 53.566 l h
390.266 53.613 m f*
0.657623 w
q 1 -0.566778 0.566778 1 0 0 cm
272.38 207.992 m 268.114 210.461 l 268.113 205.527 l h
272.38 207.992 m S Q
1 g
161.555 1.418 117.02 108.688 re f
0 g
2.834643 w
q 1 0 0 1 0 0 cm
161.555 1.418 117.02 108.688 re S Q
0.392157 g
189.402 40.387 m 215.996 54.566 l 250.727 41.68 l 224.656 27.535 l h
189.402 40.387 m f
0.686275 g
215.996 54.566 m 215.996 83.988 l 250.727 70.293 l 250.727 41.68 l f
0.501961 g
189.402 40.387 m 189.402 68.914 l 215.996 83.988 l 215.996 54.566 l h
189.402 40.387 m f
1 g
641.973 1.418 117.02 108.688 re f
0 g
q 1 0 0 1 0 0 cm
641.973 1.418 117.02 108.688 re S Q
0.392157 g
669.82 40.387 m 696.41 54.566 l 731.145 41.68 l 705.07 27.535 l h
669.82 40.387 m f
0.0283465 w
q 1 0 0 1 0 0 cm
669.82 40.387 m 696.41 54.566 l 731.145 41.68 l 705.07 27.535 l h
669.82 40.387 m S Q
0.686275 g
731.145 41.68 m 731.145 70.293 l 696.41 83.988 l 696.41 54.566 l h
731.145 41.68 m f
q 1 0 0 1 0 0 cm
731.145 41.68 m 731.145 70.293 l 696.41 83.988 l 696.41 54.566 l h
731.145 41.68 m S Q
0.501961 g
669.82 40.387 m 669.82 68.914 l 696.41 83.988 l 696.41 54.566 l h
669.82 40.387 m f
0 g
1.417323 w
q 1 0 0 1 0 0 cm
118.766 56.613 m 156.324 56.613 l S Q
159.598 56.613 m 154.691 59.445 l 154.691 53.777 l h
159.598 56.613 m f*
0.755906 w
q 1 0 0 1 0 0 cm
159.598 56.613 m 154.691 59.445 l 154.691 53.777 l h
159.598 56.613 m S Q
1.417323 w
q 1 0 0 1 0 0 cm
278.828 56.613 m 316.387 56.613 l S Q
319.66 56.613 m 314.754 59.445 l 314.754 53.777 l h
319.66 56.613 m f*
0.755906 w
q 1 0 0 1 0 0 cm
319.66 56.613 m 314.754 59.445 l 314.754 53.777 l h
319.66 56.613 m S Q
1.417323 w
q 1 0 0 1 0 0 cm
438.891 56.613 m 476.449 56.613 l S Q
479.723 56.613 m 474.816 59.445 l 474.816 53.777 l h
479.723 56.613 m f*
0.755906 w
q 1 0 0 1 0 0 cm
479.723 56.613 m 474.816 59.445 l 474.816 53.777 l h
479.723 56.613 m S Q
1 g
481.832 1.418 117.02 108.688 re f
0 g
2.834643 w
q 1 0 0 1 0 0 cm
481.832 1.418 117.02 108.688 re S Q
0.196078 g
521.121 56.805 m 546.363 56.902 l 546.234 89.109 l 520.992 89.008 l h
521.121 56.805 m f
0.588235 g
542.105 66.18 m 536.883 70.801 528.902 70.316 524.277 65.09 c 519.656 59.867
 520.145 51.887 525.367 47.266 c 530.594 42.641 538.574 43.129 543.195 48.355
 c 547.816 53.578 547.328 61.559 542.105 66.18 c h
542.105 66.18 m f
537.234 22.414 m 559.691 33.941 l 544.988 62.59 l 522.527 51.062 l h
537.234 22.414 m f
0.196078 g
537.555 61.039 m 535.172 63.145 531.531 62.922 529.422 60.539 c 527.312
 58.156 527.535 54.516 529.918 52.406 c 532.301 50.301 535.945 50.52 538.051
 52.906 c 540.16 55.289 539.938 58.93 537.555 61.039 c h
537.555 61.039 m f
0 g
1.417323 w
q 1 0 0 1 0 0 cm
598.953 56.613 m 636.512 56.613 l S Q
639.785 56.613 m 634.879 59.445 l 634.879 53.777 l h
639.785 56.613 m f*
0.755906 w
q 1 0 0 1 0 0 cm
639.785 56.613 m 634.879 59.445 l 634.879 53.777 l h
639.785 56.613 m S Q
22.648 126.129 m 22.973 125.188 23.562 124.922 24.238 124.922 c 24.238 
124.336 l 23.797 124.363 23.27 124.395 22.855 124.395 c 22.297 124.395 21.473
 124.363 21.121 124.336 c 21.121 124.922 l 21.797 124.922 22.211 125.273
 22.211 125.805 c 22.211 125.922 22.211 125.98 22.09 126.215 c 20.387 131.008
 l 18.535 125.773 l 18.477 125.539 18.445 125.512 18.445 125.422 c 18.445
 124.922 19.18 124.922 19.562 124.922 c 19.562 124.336 l 19.004 124.363 
18.062 124.395 17.594 124.395 c 17.035 124.395 16.504 124.363 15.945 124.336
 c 15.945 124.922 l 16.621 124.922 16.918 124.953 17.121 125.188 c 17.211
 125.305 17.418 125.863 17.535 126.215 c 15.945 130.773 l 14.152 125.773
 l 14.066 125.539 14.066 125.512 14.066 125.422 c 14.066 124.922 14.801 
124.922 15.152 124.922 c 15.152 124.336 l 14.594 124.363 13.535 124.395 
13.125 124.395 c 13.035 124.395 12.035 124.363 11.359 124.336 c 11.359 124.922
 l 12.301 124.922 12.535 124.98 12.77 125.57 c 15.121 132.215 l 15.211 132.48
 15.27 132.625 15.504 132.625 c 15.77 132.625 15.801 132.508 15.887 132.242
 c 17.797 126.953 l 19.711 132.273 l 19.77 132.48 19.828 132.625 20.094 
132.625 c 20.328 132.625 20.387 132.449 20.445 132.273 c h
22.648 126.129 m f
32.871 128.391 m 32.871 126.012 31.02 124.012 28.754 124.012 c 26.402 124.012
 24.578 126.07 24.578 128.391 c 24.578 130.832 26.52 132.625 28.727 132.625
 c 30.988 132.625 32.871 130.773 32.871 128.391 c h
28.754 132.156 m 27.934 132.156 27.109 131.773 26.609 130.891 c 26.137 
130.066 26.137 128.922 26.137 128.246 c 26.137 127.512 26.137 126.512 26.578
 125.688 c 27.078 124.836 27.961 124.422 28.727 124.422 c 29.551 124.422
 30.344 124.836 30.844 125.656 c 31.344 126.453 31.344 127.539 31.344 128.246
 c 31.344 128.922 31.344 129.949 30.93 130.773 c 30.488 131.625 29.668 132.156
 28.754 132.156 c h
28.754 132.156 m f
36.57 126.188 m 36.57 124.129 l 33.953 124.336 l 33.953 124.922 l 35.277
 124.922 35.422 125.039 35.422 125.98 c 35.422 131.008 l 35.422 131.832 
35.219 131.832 33.953 131.832 c 33.953 132.422 l 34.688 132.391 35.57 132.363
 36.102 132.363 c 36.836 132.363 37.719 132.363 38.48 132.422 c 38.48 131.832
 l 38.07 131.832 l 36.688 131.832 36.66 131.625 36.66 130.949 c 36.66 128.07
 l 36.66 126.215 37.453 124.539 38.863 124.539 c 38.98 124.539 39.039 124.539
 39.07 124.57 c 39.012 124.57 38.629 124.805 38.629 125.305 c 38.629 125.805
 39.039 126.098 39.453 126.098 c 39.773 126.098 40.246 125.863 40.246 125.273
 c 40.246 124.688 39.656 124.129 38.863 124.129 c 37.48 124.129 36.805 125.395
 36.57 126.188 c h
36.57 126.188 m f
44.09 119.395 m 41.387 119.602 l 41.387 120.188 l 42.707 120.188 42.855
 120.305 42.855 121.246 c 42.855 131.008 l 42.855 131.832 42.648 131.832
 41.387 131.832 c 41.387 132.422 l 42.004 132.391 43.004 132.363 43.473 
132.363 c 43.941 132.363 44.855 132.391 45.559 132.422 c 45.559 131.832 
l 44.297 131.832 44.09 131.832 44.09 131.008 c h
44.09 119.395 m f
53.09 131.391 m 53.09 132.625 l 55.855 132.422 l 55.855 131.832 l 54.562
 131.832 54.387 131.715 54.387 130.773 c 54.387 119.395 l 51.711 119.602
 l 51.711 120.188 l 53.004 120.188 53.148 120.305 53.148 121.246 c 53.148
 125.305 l 52.621 124.629 51.797 124.129 50.797 124.129 c 48.594 124.129
 46.621 125.98 46.621 128.391 c 46.621 130.773 48.445 132.625 50.594 132.625
 c 51.797 132.625 52.621 131.98 53.09 131.391 c h
53.09 126.363 m 53.09 130.215 l 53.09 130.539 53.09 130.566 52.887 130.891
 c 52.328 131.805 51.504 132.215 50.68 132.215 c 49.828 132.215 49.152 131.715
 48.711 131.008 c 48.238 130.246 48.18 129.188 48.18 128.391 c 48.18 127.715
 48.211 126.598 48.738 125.746 c 49.152 125.156 49.855 124.539 50.887 124.539
 c 51.531 124.539 52.328 124.836 52.887 125.656 c 53.09 125.98 53.09 126.012
 53.09 126.363 c h
53.09 126.363 m f
65.93 124.336 m 65.93 122.16 l 65.93 120.512 66.809 119.602 67.633 119.602
 c 67.691 119.602 67.984 119.602 68.25 119.746 c 68.047 119.805 67.691 120.07
 67.691 120.543 c 67.691 120.953 67.984 121.336 68.516 121.336 c 69.043 
121.336 69.34 120.953 69.34 120.512 c 69.34 119.805 68.633 119.188 67.633
 119.188 c 66.34 119.188 64.723 120.188 64.723 122.188 c 64.723 124.336 
l 63.254 124.336 l 63.254 124.922 l 64.723 124.922 l 64.723 131.008 l 64.723
 131.832 64.516 131.832 63.281 131.832 c 63.281 132.422 l 64.016 132.391
 64.898 132.363 65.398 132.363 c 66.164 132.363 67.047 132.363 67.781 132.422
 c 67.781 131.832 l 67.398 131.832 l 66.016 131.832 65.988 131.625 65.988
 130.949 c 65.988 124.922 l 68.105 124.922 l 68.105 124.336 l h
65.93 124.336 m f
71.512 126.188 m 71.512 124.129 l 68.895 124.336 l 68.895 124.922 l 70.215
 124.922 70.363 125.039 70.363 125.98 c 70.363 131.008 l 70.363 131.832 
70.156 131.832 68.895 131.832 c 68.895 132.422 l 69.629 132.391 70.512 132.363
 71.039 132.363 c 71.773 132.363 72.656 132.363 73.422 132.422 c 73.422 
131.832 l 73.008 131.832 l 71.629 131.832 71.598 131.625 71.598 130.949 
c 71.598 128.07 l 71.598 126.215 72.391 124.539 73.805 124.539 c 73.922 
124.539 73.98 124.539 74.008 124.57 c 73.949 124.57 73.57 124.805 73.57 
125.305 c 73.57 125.805 73.98 126.098 74.391 126.098 c 74.715 126.098 75.188
 125.863 75.188 125.273 c 75.188 124.688 74.598 124.129 73.805 124.129 c
 72.422 124.129 71.746 125.395 71.512 126.188 c h
71.512 126.188 m f
81.941 131.008 m 82.027 131.742 82.527 132.539 83.41 132.539 c 83.824 132.539
 84.969 132.273 84.969 130.746 c 84.969 129.688 l 84.5 129.688 l 84.5 130.746
 l 84.5 131.832 84.027 131.949 83.824 131.949 c 83.207 131.949 83.117 131.098
 83.117 131.008 c 83.117 127.273 l 83.117 126.48 83.117 125.746 82.441 125.039
 c 81.707 124.305 80.766 124.012 79.883 124.012 c 78.324 124.012 77.031 
124.895 77.031 126.129 c 77.031 126.688 77.414 127.012 77.914 127.012 c 
78.441 127.012 78.766 126.629 78.766 126.156 c 78.766 125.922 78.676 125.305
 77.797 125.305 c 78.324 124.629 79.234 124.422 79.824 124.422 c 80.766 
124.422 81.824 125.156 81.824 126.832 c 81.824 127.512 l 80.852 127.57 79.559
 127.629 78.383 128.188 c 76.973 128.832 76.5 129.805 76.5 130.625 c 76.5
 132.156 78.324 132.625 79.5 132.625 c 80.734 132.625 81.59 131.863 81.941
 131.008 c h
81.824 127.922 m 81.824 129.805 l 81.824 131.566 80.473 132.215 79.617 
132.215 c 78.707 132.215 77.941 131.566 77.941 130.625 c 77.941 129.598 
78.734 128.039 81.824 127.922 c h
81.824 127.922 m f
87.141 125.98 m 87.141 131.008 l 87.141 131.832 86.934 131.832 85.668 131.832
 c 85.668 132.422 l 86.344 132.391 87.285 132.363 87.816 132.363 c 88.285
 132.363 89.258 132.391 89.902 132.422 c 89.902 131.832 l 88.641 131.832
 88.434 131.832 88.434 131.008 c 88.434 127.539 l 88.434 125.598 89.785 
124.539 90.961 124.539 c 92.168 124.539 92.375 125.539 92.375 126.629 c 
92.375 131.008 l 92.375 131.832 92.168 131.832 90.902 131.832 c 90.902 132.422
 l 91.551 132.391 92.52 132.363 93.02 132.363 c 93.492 132.363 94.488 132.391
 95.109 132.422 c 95.109 131.832 l 93.871 131.832 93.668 131.832 93.668 
131.008 c 93.668 127.539 l 93.668 125.598 94.988 124.539 96.195 124.539 
c 97.371 124.539 97.578 125.539 97.578 126.629 c 97.578 131.008 l 97.578
 131.832 97.371 131.832 96.105 131.832 c 96.105 132.422 l 96.754 132.391
 97.723 132.363 98.223 132.363 c 98.723 132.363 99.695 132.391 100.34 132.422
 c 100.34 131.832 l 99.371 131.832 98.902 131.832 98.871 131.273 c 98.871
 127.688 l 98.871 126.07 98.871 125.512 98.281 124.836 c 98.02 124.512 97.402
 124.129 96.312 124.129 c 94.754 124.129 93.902 125.246 93.609 125.98 c 
93.344 124.336 91.961 124.129 91.109 124.129 c 89.727 124.129 88.844 124.922
 88.316 126.098 c 88.316 124.129 l 85.668 124.336 l 85.668 124.922 l 86.992
 124.922 87.141 125.039 87.141 125.98 c h
87.141 125.98 m f
102.793 127.688 m 102.91 124.895 104.496 124.422 105.145 124.422 c 107.055
 124.422 107.262 126.953 107.262 127.688 c h
102.793 128.098 m 108.023 128.098 l 108.438 128.098 108.496 128.098 108.496
 127.688 c 108.496 125.832 107.465 124.012 105.145 124.012 c 102.969 124.012
 101.234 125.953 101.234 128.305 c 101.234 130.805 103.203 132.625 105.348
 132.625 c 107.645 132.625 108.496 130.539 108.496 130.188 c 108.496 130.008
 108.348 129.949 108.23 129.949 c 108.082 129.949 108.023 130.066 107.996
 130.215 c 107.348 132.156 105.645 132.156 105.469 132.156 c 104.527 132.156
 103.789 131.598 103.352 130.891 c 102.793 130.008 102.793 128.773 102.793
 128.098 c h
102.793 128.098 m f
195.414 124.543 m 195.414 118.602 l 192.707 118.809 l 192.707 119.398 l
 194.031 119.398 194.18 119.516 194.18 120.457 c 194.18 131.629 l 194.648
 131.629 l 194.648 131.598 194.797 131.336 195.324 130.453 c 195.59 130.895
 196.383 131.836 197.766 131.836 c 200 131.836 201.941 129.98 201.941 127.57
 c 201.941 125.188 200.117 123.336 197.973 123.336 c 196.5 123.336 195.707
 124.219 195.414 124.543 c h
195.473 129.48 m 195.473 125.629 l 195.473 125.277 195.473 125.25 195.68
 124.953 c 196.414 123.895 197.441 123.75 197.883 123.75 c 198.734 123.75
 199.414 124.25 199.852 124.953 c 200.352 125.719 200.383 126.777 200.383
 127.57 c 200.383 128.246 200.352 129.363 199.824 130.219 c 199.414 130.805
 198.707 131.422 197.707 131.422 c 196.855 131.422 196.18 130.98 195.738
 130.277 c 195.473 129.895 195.473 129.836 195.473 129.48 c h
195.473 129.48 m f
211.941 127.602 m 211.941 125.219 210.09 123.219 207.824 123.219 c 205.473
 123.219 203.648 125.277 203.648 127.602 c 203.648 130.039 205.59 131.836
 207.797 131.836 c 210.059 131.836 211.941 129.98 211.941 127.602 c h
207.824 131.363 m 207 131.363 206.18 130.98 205.68 130.102 c 205.207 129.277
 205.207 128.129 205.207 127.453 c 205.207 126.719 205.207 125.719 205.648
 124.895 c 206.148 124.043 207.031 123.633 207.797 123.633 c 208.617 123.633
 209.414 124.043 209.914 124.867 c 210.41 125.66 210.41 126.746 210.41 127.453
 c 210.41 128.129 210.41 129.16 210 129.98 c 209.559 130.836 208.734 131.363
 207.824 131.363 c h
207.824 131.363 m f
220.117 130.598 m 220.117 131.836 l 222.879 131.629 l 222.879 131.039 l
 221.586 131.039 221.41 130.922 221.41 129.98 c 221.41 118.602 l 218.734
 118.809 l 218.734 119.398 l 220.027 119.398 220.176 119.516 220.176 120.457
 c 220.176 124.512 l 219.645 123.836 218.82 123.336 217.82 123.336 c 215.617
 123.336 213.648 125.188 213.648 127.602 c 213.648 129.98 215.469 131.836
 217.617 131.836 c 218.82 131.836 219.645 131.188 220.117 130.598 c h
220.117 125.57 m 220.117 129.422 l 220.117 129.746 220.117 129.777 219.91
 130.102 c 219.352 131.012 218.527 131.422 217.703 131.422 c 216.852 131.422
 216.176 130.922 215.734 130.219 c 215.266 129.453 215.207 128.395 215.207
 127.602 c 215.207 126.926 215.234 125.809 215.766 124.953 c 216.176 124.367
 216.883 123.75 217.91 123.75 c 218.559 123.75 219.352 124.043 219.91 124.867
 c 220.117 125.188 220.117 125.219 220.117 125.57 c h
220.117 125.57 m f
231.207 125.336 m 231.68 124.133 232.648 124.133 232.941 124.133 c 232.941
 123.543 l 232.5 123.57 231.973 123.602 231.531 123.602 c 231.207 123.602
 230.324 123.57 229.914 123.543 c 229.914 124.133 l 230.504 124.133 230.797
 124.453 230.797 124.926 c 230.797 125.129 230.766 125.16 230.68 125.395
 c 228.766 129.98 l 226.711 124.953 l 226.621 124.75 226.59 124.691 226.59
 124.602 c 226.59 124.133 227.27 124.133 227.648 124.133 c 227.648 123.543
 l 227.148 123.57 225.914 123.602 225.594 123.602 c 225.094 123.602 224.328
 123.57 223.77 123.543 c 223.77 124.133 l 224.68 124.133 225.035 124.133
 225.297 124.777 c 228.121 131.629 l 228.004 131.863 227.738 132.48 227.648
 132.746 c 227.238 133.773 226.711 135.07 225.504 135.07 c 225.414 135.07
 224.973 135.07 224.621 134.715 c 225.211 134.656 225.355 134.246 225.355
 133.922 c 225.355 133.453 225.004 133.156 224.562 133.156 c 224.18 133.156
 223.77 133.395 223.77 133.953 c 223.77 134.805 224.562 135.48 225.504 135.48
 c 226.68 135.48 227.445 134.391 227.887 133.336 c h
231.207 125.336 m f
245.102 119.633 m 245.102 119.16 245.102 119.133 244.66 119.133 c 243.484
 120.34 241.836 120.34 241.25 120.34 c 241.25 120.926 l 241.633 120.926 
242.719 120.926 243.688 120.426 c 243.688 130.16 l 243.688 130.836 243.629
 131.039 241.953 131.039 c 241.367 131.039 l 241.367 131.629 l 242.012 131.57
 243.629 131.57 244.395 131.57 c 245.129 131.57 246.777 131.57 247.422 131.629
 c 247.422 131.039 l 246.836 131.039 l 245.129 131.039 245.102 130.836 245.102
 130.16 c h
245.102 119.633 m f
675.551 125.734 m 675.551 119.793 l 672.844 120 l 672.844 120.59 l 674.168
 120.59 674.312 120.707 674.312 121.648 c 674.312 132.82 l 674.785 132.82
 l 674.785 132.789 674.934 132.527 675.461 131.645 c 675.727 132.086 676.52
 133.027 677.902 133.027 c 680.137 133.027 682.078 131.172 682.078 128.762
 c 682.078 126.379 680.254 124.527 678.105 124.527 c 676.637 124.527 675.844
 125.41 675.551 125.734 c h
675.609 130.672 m 675.609 126.82 l 675.609 126.469 675.609 126.438 675.812
 126.145 c 676.551 125.086 677.578 124.941 678.02 124.941 c 678.871 124.941
 679.547 125.441 679.988 126.145 c 680.488 126.91 680.52 127.969 680.52 
128.762 c 680.52 129.438 680.488 130.555 679.961 131.41 c 679.547 131.996
 678.844 132.613 677.844 132.613 c 676.988 132.613 676.312 132.172 675.871
 131.469 c 675.609 131.086 675.609 131.027 675.609 130.672 c h
675.609 130.672 m f
692.078 128.793 m 692.078 126.41 690.223 124.41 687.961 124.41 c 685.609
 124.41 683.785 126.469 683.785 128.793 c 683.785 131.23 685.727 133.027
 687.93 133.027 c 690.195 133.027 692.078 131.172 692.078 128.793 c h
687.961 132.555 m 687.137 132.555 686.312 132.172 685.812 131.289 c 685.344
 130.469 685.344 129.32 685.344 128.645 c 685.344 127.91 685.344 126.91 
685.785 126.086 c 686.285 125.234 687.168 124.82 687.93 124.82 c 688.754
 124.82 689.547 125.234 690.047 126.059 c 690.547 126.852 690.547 127.938
 690.547 128.645 c 690.547 129.32 690.547 130.352 690.137 131.172 c 689.695
 132.027 688.871 132.555 687.961 132.555 c h
687.961 132.555 m f
700.25 131.789 m 700.25 133.027 l 703.016 132.82 l 703.016 132.23 l 701.723
 132.23 701.547 132.113 701.547 131.172 c 701.547 119.793 l 698.871 120 
l 698.871 120.59 l 700.164 120.59 700.309 120.707 700.309 121.648 c 700.309
 125.703 l 699.781 125.027 698.957 124.527 697.957 124.527 c 695.754 124.527
 693.781 126.379 693.781 128.793 c 693.781 131.172 695.605 133.027 697.754
 133.027 c 698.957 133.027 699.781 132.379 700.25 131.789 c h
700.25 126.762 m 700.25 130.613 l 700.25 130.938 700.25 130.969 700.047
 131.289 c 699.488 132.203 698.664 132.613 697.84 132.613 c 696.988 132.613
 696.312 132.113 695.871 131.41 c 695.398 130.645 695.34 129.586 695.34 
128.793 c 695.34 128.113 695.371 126.996 695.898 126.145 c 696.312 125.559
 697.016 124.941 698.047 124.941 c 698.691 124.941 699.488 125.234 700.047
 126.059 c 700.25 126.379 700.25 126.41 700.25 126.762 c h
700.25 126.762 m f
711.344 126.527 m 711.812 125.32 712.785 125.32 713.078 125.32 c 713.078
 124.734 l 712.637 124.762 712.109 124.793 711.668 124.793 c 711.344 124.793
 710.461 124.762 710.051 124.734 c 710.051 125.32 l 710.637 125.32 710.934
 125.645 710.934 126.117 c 710.934 126.32 710.902 126.352 710.816 126.586
 c 708.902 131.172 l 706.844 126.145 l 706.758 125.938 706.727 125.879 706.727
 125.793 c 706.727 125.32 707.402 125.32 707.785 125.32 c 707.785 124.734
 l 707.285 124.762 706.051 124.793 705.727 124.793 c 705.227 124.793 704.465
 124.762 703.906 124.734 c 703.906 125.32 l 704.816 125.32 705.168 125.32
 705.434 125.969 c 708.258 132.82 l 708.141 133.055 707.875 133.672 707.785
 133.938 c 707.375 134.965 706.844 136.262 705.641 136.262 c 705.551 136.262
 705.109 136.262 704.758 135.906 c 705.344 135.848 705.492 135.438 705.492
 135.113 c 705.492 134.645 705.141 134.348 704.699 134.348 c 704.316 134.348
 703.906 134.582 703.906 135.141 c 703.906 135.996 704.699 136.672 705.641
 136.672 c 706.816 136.672 707.582 135.582 708.02 134.523 c h
711.344 126.527 m f
722.09 131.379 m 724.09 129.438 l 727 126.852 728.117 125.852 728.117 123.969
 c 728.117 121.824 726.441 120.324 724.148 120.324 c 722.031 120.324 720.648
 122.059 720.648 123.734 c 720.648 124.762 721.59 124.762 721.648 124.762
 c 721.973 124.762 722.621 124.559 722.621 123.762 c 722.621 123.293 722.266
 122.793 721.621 122.793 c 721.473 122.793 721.445 122.793 721.383 122.824
 c 721.797 121.586 722.824 120.91 723.914 120.91 c 725.617 120.91 726.414
 122.441 726.414 123.969 c 726.414 125.469 725.5 126.938 724.441 128.113
 c 720.855 132.113 l 720.648 132.32 720.648 132.379 720.648 132.82 c 727.617
 132.82 l 728.117 129.555 l 727.676 129.555 l 727.559 130.113 727.441 130.938
 727.234 131.23 c 727.117 131.379 725.883 131.379 725.473 131.379 c h
722.09 131.379 m f
526.445 121.895 m 523.594 122.102 l 523.594 122.688 l 525.035 122.688 525.211
 122.809 525.211 123.746 c 525.211 131.156 l 525.211 132.012 525.035 133.629
 523.832 133.629 c 523.742 133.629 523.301 133.629 522.832 133.363 c 523.094
 133.305 523.477 133.039 523.477 132.539 c 523.477 132.039 523.152 131.656
 522.625 131.656 c 522.094 131.656 521.742 132.039 521.742 132.539 c 521.742
 133.508 522.801 134.039 523.891 134.039 c 525.27 134.039 526.445 132.832
 526.445 131.129 c h
526.445 118.633 m 526.445 118.074 526.008 117.633 525.445 117.633 c 524.918
 117.633 524.449 118.074 524.449 118.633 c 524.449 119.16 524.918 119.633
 525.445 119.633 c 526.008 119.633 526.445 119.16 526.445 118.633 c h
526.445 118.633 m f
537.059 126.16 m 537.059 123.777 535.203 121.777 532.941 121.777 c 530.59
 121.777 528.766 123.836 528.766 126.16 c 528.766 128.598 530.707 130.395
 532.91 130.395 c 535.176 130.395 537.059 128.539 537.059 126.16 c h
532.941 129.922 m 532.117 129.922 531.293 129.539 530.793 128.656 c 530.324
 127.836 530.324 126.688 530.324 126.012 c 530.324 125.277 530.324 124.277
 530.766 123.453 c 531.266 122.602 532.148 122.188 532.91 122.188 c 533.734
 122.188 534.527 122.602 535.027 123.426 c 535.527 124.219 535.527 125.305
 535.527 126.012 c 535.527 126.688 535.527 127.719 535.117 128.539 c 534.676
 129.395 533.852 129.922 532.941 129.922 c h
532.941 129.922 m f
540.934 121.895 m 538.316 122.102 l 538.316 122.688 l 539.52 122.688 539.699
 122.809 539.699 123.719 c 539.699 128.777 l 539.699 129.598 539.492 129.598
 538.227 129.598 c 538.227 130.188 l 538.816 130.156 539.844 130.129 540.285
 130.129 c 540.961 130.129 541.609 130.156 542.254 130.188 c 542.254 129.598
 l 540.992 129.598 540.934 129.512 540.934 128.777 c h
540.992 118.633 m 540.992 118.043 540.551 117.633 540.02 117.633 c 539.434
 117.633 539.02 118.133 539.02 118.633 c 539.02 119.133 539.434 119.633 
540.02 119.633 c 540.551 119.633 540.992 119.219 540.992 118.633 c h
540.992 118.633 m f
544.875 123.746 m 544.875 128.777 l 544.875 129.598 544.672 129.598 543.406
 129.598 c 543.406 130.188 l 544.082 130.156 545.023 130.129 545.551 130.129
 c 546.023 130.129 546.992 130.156 547.641 130.188 c 547.641 129.598 l 546.375
 129.598 546.172 129.598 546.172 128.777 c 546.172 125.305 l 546.172 123.367
 547.523 122.309 548.699 122.309 c 549.902 122.309 550.109 123.305 550.109
 124.395 c 550.109 128.777 l 550.109 129.598 549.902 129.598 548.641 129.598
 c 548.641 130.188 l 549.285 130.156 550.258 130.129 550.758 130.129 c 551.227
 130.129 552.227 130.156 552.844 130.188 c 552.844 129.598 l 551.875 129.598
 551.402 129.598 551.402 129.039 c 551.402 125.453 l 551.402 123.836 551.402
 123.277 550.816 122.602 c 550.551 122.277 549.934 121.895 548.844 121.895
 c 547.465 121.895 546.582 122.688 546.051 123.867 c 546.051 121.895 l 543.406
 122.102 l 543.406 122.688 l 544.73 122.688 544.875 122.809 544.875 123.746
 c h
544.875 123.746 m f
555.945 122.688 m 558.648 122.688 l 558.648 122.102 l 555.945 122.102 l
 555.945 118.66 l 555.473 118.66 l 555.473 120.191 554.914 122.188 553.062
 122.277 c 553.062 122.688 l 554.648 122.688 l 554.648 127.863 l 554.648
 130.156 556.414 130.395 557.09 130.395 c 558.414 130.395 558.941 129.07
 558.941 127.863 c 558.941 126.805 l 558.473 126.805 l 558.473 127.836 l
 558.473 129.215 557.914 129.922 557.207 129.922 c 555.945 129.922 555.945
 128.219 555.945 127.895 c h
555.945 122.688 m f
321.426 125.609 m 321.426 123.551 l 318.809 123.754 l 318.809 124.344 l
 320.133 124.344 320.281 124.461 320.281 125.402 c 320.281 130.43 l 320.281
 131.254 320.074 131.254 318.809 131.254 c 318.809 131.84 l 319.547 131.812
 320.426 131.781 320.957 131.781 c 321.691 131.781 322.574 131.781 323.34
 131.84 c 323.34 131.254 l 322.926 131.254 l 321.543 131.254 321.516 131.047
 321.516 130.371 c 321.516 127.488 l 321.516 125.637 322.309 123.961 323.719
 123.961 c 323.84 123.961 323.898 123.961 323.926 123.992 c 323.867 123.992
 323.484 124.227 323.484 124.727 c 323.484 125.227 323.898 125.52 324.309
 125.52 c 324.633 125.52 325.102 125.285 325.102 124.695 c 325.102 124.109
 324.516 123.551 323.719 123.551 c 322.34 123.551 321.664 124.812 321.426
 125.609 c h
321.426 125.609 m f
328.945 123.551 m 326.328 123.754 l 326.328 124.344 l 327.535 124.344 327.711
 124.461 327.711 125.371 c 327.711 130.43 l 327.711 131.254 327.508 131.254
 326.242 131.254 c 326.242 131.84 l 326.828 131.812 327.859 131.781 328.301
 131.781 c 328.977 131.781 329.625 131.812 330.27 131.84 c 330.27 131.254
 l 329.004 131.254 328.945 131.164 328.945 130.43 c h
329.004 120.285 m 329.004 119.699 328.566 119.285 328.035 119.285 c 327.445
 119.285 327.035 119.785 327.035 120.285 c 327.035 120.785 327.445 121.285
 328.035 121.285 c 328.566 121.285 329.004 120.875 329.004 120.285 c h
329.004 120.285 m f
335.008 128.605 m 333.359 128.605 333.359 126.727 333.359 126.312 c 333.359
 125.812 333.391 125.195 333.656 124.727 c 333.801 124.52 334.242 123.992
 335.008 123.992 c 336.625 123.992 336.625 125.844 336.625 126.285 c 336.625
 126.785 336.625 127.402 336.332 127.871 c 336.184 128.078 335.742 128.605
 335.008 128.605 c h
332.832 129.344 m 332.832 129.285 332.832 128.844 333.125 128.461 c 333.859
 128.988 334.656 129.047 335.008 129.047 c 336.742 129.047 338.035 127.754
 338.035 126.312 c 338.035 125.609 337.742 124.934 337.273 124.492 c 337.949
 123.844 338.625 123.754 338.949 123.754 c 339.008 123.754 339.094 123.754
 339.152 123.785 c 338.949 123.844 338.828 124.051 338.828 124.285 c 338.828
 124.609 339.094 124.812 339.387 124.812 c 339.566 124.812 339.918 124.695
 339.918 124.254 c 339.918 123.934 339.711 123.344 338.977 123.344 c 338.594
 123.344 337.77 123.461 336.977 124.227 c 336.184 123.609 335.418 123.551
 335.008 123.551 c 333.242 123.551 331.949 124.844 331.949 126.285 c 331.949
 127.109 332.359 127.812 332.832 128.227 c 332.598 128.488 332.242 129.105
 332.242 129.785 c 332.242 130.371 332.508 131.078 333.098 131.461 c 331.949
 131.754 331.363 132.578 331.363 133.312 c 331.363 134.664 333.215 135.691
 335.508 135.691 c 337.711 135.691 339.652 134.754 339.652 133.281 c 339.652
 132.637 339.418 131.664 338.449 131.137 c 337.449 130.637 336.359 130.637
 335.215 130.637 c 334.742 130.637 333.949 130.637 333.801 130.605 c 333.215
 130.52 332.832 129.961 332.832 129.344 c h
335.535 135.281 m 333.625 135.281 332.332 134.312 332.332 133.312 c 332.332
 132.457 333.039 131.754 333.859 131.723 c 334.977 131.723 l 336.594 131.723
 338.684 131.723 338.684 133.312 c 338.684 134.34 337.359 135.281 335.535
 135.281 c h
335.535 135.281 m f
343.527 123.551 m 340.91 123.754 l 340.91 124.344 l 342.117 124.344 342.293
 124.461 342.293 125.371 c 342.293 130.43 l 342.293 131.254 342.09 131.254
 340.824 131.254 c 340.824 131.84 l 341.41 131.812 342.441 131.781 342.883
 131.781 c 343.559 131.781 344.203 131.812 344.852 131.84 c 344.852 131.254
 l 343.586 131.254 343.527 131.164 343.527 130.43 c h
343.586 120.285 m 343.586 119.699 343.145 119.285 342.617 119.285 c 342.027
 119.285 341.617 119.785 341.617 120.285 c 341.617 120.785 342.027 121.285
 342.617 121.285 c 343.145 121.285 343.586 120.875 343.586 120.285 c h
343.586 120.285 m f
352.531 130.812 m 352.531 132.047 l 355.293 131.84 l 355.293 131.254 l 
354 131.254 353.824 131.137 353.824 130.195 c 353.824 118.816 l 351.148 
119.023 l 351.148 119.609 l 352.441 119.609 352.59 119.727 352.59 120.668
 c 352.59 124.727 l 352.059 124.051 351.234 123.551 350.234 123.551 c 348.031
 123.551 346.062 125.402 346.062 127.812 c 346.062 130.195 347.883 132.047
 350.031 132.047 c 351.234 132.047 352.059 131.398 352.531 130.812 c h
352.531 125.785 m 352.531 129.637 l 352.531 129.961 352.531 129.988 352.324
 130.312 c 351.766 131.223 350.941 131.637 350.117 131.637 c 349.266 131.637
 348.59 131.137 348.148 130.43 c 347.68 129.664 347.621 128.605 347.621 
127.812 c 347.621 127.137 347.648 126.02 348.18 125.168 c 348.59 124.578
 349.297 123.961 350.324 123.961 c 350.973 123.961 351.766 124.254 352.324
 125.078 c 352.531 125.402 352.531 125.43 352.531 125.785 c h
352.531 125.785 m f
365.309 124.344 m 368.012 124.344 l 368.012 123.754 l 365.309 123.754 l
 365.309 120.316 l 364.836 120.316 l 364.836 121.844 364.277 123.844 362.426
 123.934 c 362.426 124.344 l 364.016 124.344 l 364.016 129.52 l 364.016 
131.812 365.777 132.047 366.453 132.047 c 367.777 132.047 368.309 130.723
 368.309 129.52 c 368.309 128.461 l 367.836 128.461 l 367.836 129.488 l 
367.836 130.871 367.277 131.578 366.57 131.578 c 365.309 131.578 365.309
 129.871 365.309 129.547 c h
365.309 124.344 m f
372.512 125.609 m 372.512 123.551 l 369.895 123.754 l 369.895 124.344 l
 371.215 124.344 371.363 124.461 371.363 125.402 c 371.363 130.43 l 371.363
 131.254 371.156 131.254 369.895 131.254 c 369.895 131.84 l 370.629 131.812
 371.512 131.781 372.039 131.781 c 372.773 131.781 373.656 131.781 374.422
 131.84 c 374.422 131.254 l 374.012 131.254 l 372.629 131.254 372.598 131.047
 372.598 130.371 c 372.598 127.488 l 372.598 125.637 373.391 123.961 374.805
 123.961 c 374.922 123.961 374.98 123.961 375.008 123.992 c 374.949 123.992
 374.57 124.227 374.57 124.727 c 374.57 125.227 374.98 125.52 375.391 125.52
 c 375.715 125.52 376.188 125.285 376.188 124.695 c 376.188 124.109 375.598
 123.551 374.805 123.551 c 373.422 123.551 372.746 124.812 372.512 125.609
 c h
372.512 125.609 m f
382.941 130.43 m 383.027 131.164 383.527 131.961 384.41 131.961 c 384.824
 131.961 385.969 131.695 385.969 130.164 c 385.969 129.105 l 385.5 129.105
 l 385.5 130.164 l 385.5 131.254 385.027 131.371 384.824 131.371 c 384.207
 131.371 384.117 130.52 384.117 130.43 c 384.117 126.695 l 384.117 125.902
 384.117 125.168 383.441 124.461 c 382.707 123.727 381.766 123.434 380.883
 123.434 c 379.324 123.434 378.031 124.312 378.031 125.551 c 378.031 126.109
 378.414 126.43 378.914 126.43 c 379.441 126.43 379.766 126.051 379.766 
125.578 c 379.766 125.344 379.676 124.727 378.797 124.727 c 379.324 124.051
 380.234 123.844 380.824 123.844 c 381.766 123.844 382.824 124.578 382.824
 126.254 c 382.824 126.93 l 381.852 126.988 380.559 127.047 379.383 127.605
 c 377.973 128.254 377.5 129.223 377.5 130.047 c 377.5 131.578 379.324 132.047
 380.5 132.047 c 381.734 132.047 382.59 131.281 382.941 130.43 c h
382.824 127.344 m 382.824 129.223 l 382.824 130.988 381.473 131.637 380.617
 131.637 c 379.707 131.637 378.941 130.988 378.941 130.047 c 378.941 129.02
 379.734 127.461 382.824 127.344 c h
382.824 127.344 m f
388.141 125.402 m 388.141 130.43 l 388.141 131.254 387.934 131.254 386.668
 131.254 c 386.668 131.84 l 387.344 131.812 388.285 131.781 388.816 131.781
 c 389.285 131.781 390.258 131.812 390.902 131.84 c 390.902 131.254 l 389.641
 131.254 389.434 131.254 389.434 130.43 c 389.434 126.961 l 389.434 125.02
 390.785 123.961 391.961 123.961 c 393.168 123.961 393.375 124.961 393.375
 126.051 c 393.375 130.43 l 393.375 131.254 393.168 131.254 391.902 131.254
 c 391.902 131.84 l 392.551 131.812 393.52 131.781 394.02 131.781 c 394.492
 131.781 395.492 131.812 396.109 131.84 c 396.109 131.254 l 395.137 131.254
 394.668 131.254 394.668 130.695 c 394.668 127.109 l 394.668 125.492 394.668
 124.934 394.078 124.254 c 393.812 123.934 393.195 123.551 392.109 123.551
 c 390.727 123.551 389.844 124.344 389.316 125.52 c 389.316 123.551 l 386.668
 123.754 l 386.668 124.344 l 387.992 124.344 388.141 124.461 388.141 125.402
 c h
388.141 125.402 m f
400.406 128.195 m 400.82 128.285 402.348 128.578 402.348 129.93 c 402.348
 130.871 401.703 131.637 400.23 131.637 c 398.645 131.637 397.969 130.578
 397.613 128.961 c 397.555 128.727 397.555 128.664 397.352 128.664 c 397.113
 128.664 397.113 128.785 397.113 129.105 c 397.113 131.605 l 397.113 131.93
 397.113 132.047 397.32 132.047 c 397.41 132.047 397.438 132.02 397.793 
131.664 c 397.82 131.637 397.82 131.605 398.172 131.254 c 398.996 132.02
 399.848 132.047 400.23 132.047 c 402.379 132.047 403.262 130.781 403.262
 129.43 c 403.262 128.461 402.703 127.871 402.465 127.668 c 401.848 127.047
 401.113 126.902 400.32 126.754 c 399.262 126.551 398.027 126.312 398.027
 125.227 c 398.027 124.551 398.496 123.785 400.113 123.785 c 402.172 123.785
 402.289 125.492 402.32 126.051 c 402.32 126.227 402.496 126.227 402.523
 126.227 c 402.789 126.227 402.789 126.137 402.789 125.785 c 402.789 123.875
 l 402.789 123.578 402.789 123.434 402.582 123.434 c 402.496 123.434 402.438
 123.434 402.203 123.668 c 402.145 123.727 401.965 123.902 401.879 123.961
 c 401.172 123.434 400.406 123.434 400.113 123.434 c 397.82 123.434 397.113
 124.695 397.113 125.754 c 397.113 126.402 397.41 126.93 397.91 127.344 
c 398.527 127.812 399.055 127.93 400.406 128.195 c h
400.406 128.195 m f
407.184 123.754 m 407.184 121.578 l 407.184 119.934 408.066 119.023 408.891
 119.023 c 408.949 119.023 409.242 119.023 409.508 119.168 c 409.301 119.227
 408.949 119.492 408.949 119.961 c 408.949 120.375 409.242 120.758 409.773
 120.758 c 410.301 120.758 410.594 120.375 410.594 119.934 c 410.594 119.227
 409.891 118.609 408.891 118.609 c 407.598 118.609 405.98 119.609 405.98
 121.609 c 405.98 123.754 l 404.508 123.754 l 404.508 124.344 l 405.98 124.344
 l 405.98 130.43 l 405.98 131.254 405.773 131.254 404.539 131.254 c 404.539
 131.84 l 405.273 131.812 406.156 131.781 406.656 131.781 c 407.418 131.781
 408.301 131.781 409.035 131.84 c 409.035 131.254 l 408.656 131.254 l 407.273
 131.254 407.242 131.047 407.242 130.371 c 407.242 124.344 l 409.359 124.344
 l 409.359 123.754 l h
407.184 123.754 m f
418.441 127.812 m 418.441 125.43 416.59 123.434 414.324 123.434 c 411.973
 123.434 410.148 125.492 410.148 127.812 c 410.148 130.254 412.09 132.047
 414.297 132.047 c 416.559 132.047 418.441 130.195 418.441 127.812 c h
414.324 131.578 m 413.504 131.578 412.68 131.195 412.18 130.312 c 411.707
 129.488 411.707 128.344 411.707 127.668 c 411.707 126.93 411.707 125.93
 412.148 125.109 c 412.648 124.254 413.531 123.844 414.297 123.844 c 415.117
 123.844 415.914 124.254 416.414 125.078 c 416.914 125.871 416.914 126.961
 416.914 127.668 c 416.914 128.344 416.914 129.371 416.5 130.195 c 416.059
 131.047 415.238 131.578 414.324 131.578 c h
414.324 131.578 m f
422.141 125.609 m 422.141 123.551 l 419.523 123.754 l 419.523 124.344 l
 420.848 124.344 420.992 124.461 420.992 125.402 c 420.992 130.43 l 420.992
 131.254 420.789 131.254 419.523 131.254 c 419.523 131.84 l 420.258 131.812
 421.141 131.781 421.672 131.781 c 422.406 131.781 423.289 131.781 424.051
 131.84 c 424.051 131.254 l 423.641 131.254 l 422.258 131.254 422.23 131.047
 422.23 130.371 c 422.23 127.488 l 422.23 125.637 423.023 123.961 424.434
 123.961 c 424.551 123.961 424.609 123.961 424.641 123.992 c 424.582 123.992
 424.199 124.227 424.199 124.727 c 424.199 125.227 424.609 125.52 425.023
 125.52 c 425.344 125.52 425.816 125.285 425.816 124.695 c 425.816 124.109
 425.227 123.551 424.434 123.551 c 423.051 123.551 422.375 124.812 422.141
 125.609 c h
422.141 125.609 m f
428.395 125.402 m 428.395 130.43 l 428.395 131.254 428.191 131.254 426.926
 131.254 c 426.926 131.84 l 427.602 131.812 428.543 131.781 429.074 131.781
 c 429.543 131.781 430.512 131.812 431.16 131.84 c 431.16 131.254 l 429.895
 131.254 429.691 131.254 429.691 130.43 c 429.691 126.961 l 429.691 125.02
 431.043 123.961 432.219 123.961 c 433.426 123.961 433.629 124.961 433.629
 126.051 c 433.629 130.43 l 433.629 131.254 433.426 131.254 432.16 131.254
 c 432.16 131.84 l 432.805 131.812 433.777 131.781 434.277 131.781 c 434.746
 131.781 435.746 131.812 436.363 131.84 c 436.363 131.254 l 435.129 131.254
 434.922 131.254 434.922 130.43 c 434.922 126.961 l 434.922 125.02 436.246
 123.961 437.453 123.961 c 438.629 123.961 438.836 124.961 438.836 126.051
 c 438.836 130.43 l 438.836 131.254 438.629 131.254 437.363 131.254 c 437.363
 131.84 l 438.012 131.812 438.98 131.781 439.48 131.781 c 439.98 131.781
 440.953 131.812 441.598 131.84 c 441.598 131.254 l 440.629 131.254 440.156
 131.254 440.129 130.695 c 440.129 127.109 l 440.129 125.492 440.129 124.934
 439.539 124.254 c 439.273 123.934 438.656 123.551 437.57 123.551 c 436.012
 123.551 435.16 124.668 434.863 125.402 c 434.602 123.754 433.219 123.551
 432.367 123.551 c 430.984 123.551 430.102 124.344 429.574 125.52 c 429.574
 123.551 l 426.926 123.754 l 426.926 124.344 l 428.25 124.344 428.395 124.461
 428.395 125.402 c h
428.395 125.402 m f
Q Q
showpage
%%Trailer
end
%%EOF
