%!PS-Adobe-3.0 EPSF-3.0
%%Creator: cairo 1.16.0 (https://cairographics.org)
%%CreationDate: Sun Nov 28 20:42:43 2021
%%Pages: 1
%%DocumentData: Clean7Bit
%%LanguageLevel: 2
%%BoundingBox: 0 0 385 352
%%EndComments
%%BeginProlog
50 dict begin
/q { gsave } bind def
/Q { grestore } bind def
/cm { 6 array astore concat } bind def
/w { setlinewidth } bind def
/J { setlinecap } bind def
/j { setlinejoin } bind def
/M { setmiterlimit } bind def
/d { setdash } bind def
/m { moveto } bind def
/l { lineto } bind def
/c { curveto } bind def
/h { closepath } bind def
/re { exch dup neg 3 1 roll 5 3 roll moveto 0 rlineto
      0 exch rlineto 0 rlineto closepath } bind def
/S { stroke } bind def
/f { fill } bind def
/f* { eofill } bind def
/n { newpath } bind def
/W { clip } bind def
/W* { eoclip } bind def
/BT { } bind def
/ET { } bind def
/BDC { mark 3 1 roll /BDC pdfmark } bind def
/EMC { mark /EMC pdfmark } bind def
/cairo_store_point { /cairo_point_y exch def /cairo_point_x exch def } def
/Tj { show currentpoint cairo_store_point } bind def
/TJ {
  {
    dup
    type /stringtype eq
    { show } { -0.001 mul 0 cairo_font_matrix dtransform rmoveto } ifelse
  } forall
  currentpoint cairo_store_point
} bind def
/cairo_selectfont { cairo_font_matrix aload pop pop pop 0 0 6 array astore
    cairo_font exch selectfont cairo_point_x cairo_point_y moveto } bind def
/Tf { pop /cairo_font exch def /cairo_font_matrix where
      { pop cairo_selectfont } if } bind def
/Td { matrix translate cairo_font_matrix matrix concatmatrix dup
      /cairo_font_matrix exch def dup 4 get exch 5 get cairo_store_point
      /cairo_font where { pop cairo_selectfont } if } bind def
/Tm { 2 copy 8 2 roll 6 array astore /cairo_font_matrix exch def
      cairo_store_point /cairo_font where { pop cairo_selectfont } if } bind def
/g { setgray } bind def
/rg { setrgbcolor } bind def
/d1 { setcachedevice } bind def
/cairo_data_source {
  CairoDataIndex CairoData length lt
    { CairoData CairoDataIndex get /CairoDataIndex CairoDataIndex 1 add def }
    { () } ifelse
} def
/cairo_flush_ascii85_file { cairo_ascii85_file status { cairo_ascii85_file flushfile } if } def
/cairo_image { image cairo_flush_ascii85_file } def
/cairo_imagemask { imagemask cairo_flush_ascii85_file } def
%%EndProlog
%%BeginSetup
%%EndSetup
%%Page: 1 1
%%BeginPageSetup
%%PageBoundingBox: 0 0 385 352
%%EndPageSetup
q 0 0 385 352 rectclip
1 0 0 -1 0 352 cm q
1 g
27.137 1.418 330.082 348.234 re f
0 g
2.834646 w
0 J
0 j
[] 0.0 d
4 M q 1 0 0 1 0 0 cm
27.137 1.418 330.082 348.234 re S Q
358.477 29.723 m 358.477 59.219 l 384.891 44.188 l h
358.477 29.723 m f
358.477 82.148 m 358.477 111.645 l 384.891 96.613 l h
358.477 82.148 m f
358.477 134.574 m 358.477 164.07 l 384.891 149.039 l h
358.477 134.574 m f
358.477 187 m 358.477 216.496 l 384.891 201.465 l h
358.477 187 m f
358.477 239.426 m 358.477 268.922 l 384.891 253.891 l h
358.477 239.426 m f
358.477 291.852 m 358.477 321.348 l 384.891 306.316 l h
358.477 291.852 m f
0 29.723 m 0 59.219 l 26.41 44.188 l h
0 29.723 m f
0 82.148 m 0 111.645 l 26.41 96.613 l h
0 82.148 m f
0 134.574 m 0 164.07 l 26.41 149.039 l h
0 134.574 m f
0 187 m 0 216.496 l 26.41 201.465 l h
0 187 m f
0 239.426 m 0 268.922 l 26.41 253.891 l h
0 239.426 m f
0 291.852 m 0 321.348 l 26.41 306.316 l h
0 291.852 m f
57.531 35.789 m 57.531 35.656 57.441 35.523 57.266 35.523 c 56.953 35.523
 55.801 36.629 55.359 37.473 c 54.738 35.922 53.633 35.48 52.703 35.48 c
 49.379 35.48 45.926 39.645 45.926 43.762 c 45.926 46.508 47.562 48.281 
49.645 48.281 c 50.84 48.281 51.949 47.613 52.969 46.598 c 52.703 47.57 
51.773 51.379 51.684 51.645 c 51.461 52.441 51.242 52.531 49.645 52.574 
c 49.293 52.574 49.027 52.574 49.027 53.152 c 49.027 53.152 49.027 53.461
 49.379 53.461 c 50.266 53.461 51.285 53.371 52.215 53.371 c 53.145 53.371
 54.164 53.461 55.137 53.461 c 55.27 53.461 55.625 53.461 55.625 52.887 
c 55.625 52.574 55.359 52.574 54.871 52.574 c 53.543 52.574 53.543 52.398
 53.543 52.133 c 53.543 51.91 53.586 51.734 53.633 51.512 c h
49.734 47.66 m 48.008 47.66 47.918 45.488 47.918 45 c 47.918 43.629 48.715
 40.574 49.203 39.375 c 50.09 37.297 51.551 36.098 52.703 36.098 c 54.562
 36.098 54.961 38.402 54.961 38.578 c 54.961 38.758 53.41 44.957 53.32 45.047
 c 52.879 45.844 51.285 47.66 49.734 47.66 c h
49.734 47.66 m f
63.98 39.625 m 63.98 39.094 63.98 39.094 63.402 39.094 c 62.117 40.336 
60.348 40.336 59.551 40.336 c 59.551 41.043 l 59.992 41.043 61.32 41.043
 62.383 40.512 c 62.383 50.566 l 62.383 51.23 62.383 51.496 60.438 51.496
 c 59.684 51.496 l 59.684 52.203 l 60.035 52.203 62.473 52.117 63.184 52.117
 c 63.801 52.117 66.281 52.203 66.727 52.203 c 66.727 51.496 l 65.973 51.496
 l 63.98 51.496 63.98 51.23 63.98 50.566 c h
63.98 39.625 m f
57.219 88.215 m 57.219 88.082 57.133 87.949 56.953 87.949 c 56.645 87.949
 55.492 89.059 55.051 89.898 c 54.43 88.348 53.32 87.906 52.391 87.906 c
 49.07 87.906 45.617 92.07 45.617 96.188 c 45.617 98.934 47.254 100.707 
49.336 100.707 c 50.531 100.707 51.641 100.039 52.656 99.023 c 52.391 99.996
 51.461 103.805 51.375 104.07 c 51.152 104.867 50.93 104.957 49.336 105 
c 48.98 105 48.715 105 48.715 105.578 c 48.715 105.578 48.715 105.887 49.07
 105.887 c 49.957 105.887 50.977 105.797 51.906 105.797 c 52.836 105.797
 53.855 105.887 54.828 105.887 c 54.961 105.887 55.316 105.887 55.316 105.312
 c 55.316 105 55.051 105 54.562 105 c 53.234 105 53.234 104.824 53.234 104.559
 c 53.234 104.336 53.277 104.16 53.32 103.938 c h
49.426 100.086 m 47.695 100.086 47.609 97.914 47.609 97.426 c 47.609 96.055
 48.406 93 48.895 91.801 c 49.777 89.723 51.242 88.523 52.391 88.523 c 54.254
 88.523 54.652 90.828 54.652 91.004 c 54.652 91.184 53.102 97.383 53.012
 97.473 c 52.57 98.27 50.977 100.086 49.426 100.086 c h
49.426 100.086 m f
67.035 101.043 m 66.371 101.043 l 66.328 101.484 66.105 102.637 65.84 102.812
 c 65.707 102.945 64.199 102.945 63.891 102.945 c 60.258 102.945 l 62.34
 101.133 63.051 100.555 64.199 99.625 c 65.66 98.473 67.035 97.234 67.035
 95.375 c 67.035 92.98 64.953 91.52 62.43 91.52 c 59.992 91.52 58.309 93.246
 58.309 95.062 c 58.309 96.039 59.152 96.172 59.371 96.172 c 59.816 96.172
 60.391 95.816 60.391 95.109 c 60.391 94.754 60.258 94.043 59.238 94.043
 c 59.859 92.672 61.188 92.23 62.117 92.23 c 64.113 92.23 65.129 93.777 
65.129 95.375 c 65.129 97.102 63.891 98.43 63.27 99.137 c 58.531 103.879
 l 58.309 104.055 58.309 104.098 58.309 104.629 c 66.461 104.629 l h
67.035 101.043 m f
57.133 140.641 m 57.133 140.508 57.043 140.375 56.867 140.375 c 56.555 
140.375 55.402 141.484 54.961 142.324 c 54.34 140.773 53.234 140.332 52.305
 140.332 c 48.98 140.332 45.527 144.496 45.527 148.613 c 45.527 151.359 
47.164 153.133 49.246 153.133 c 50.441 153.133 51.551 152.465 52.57 151.449
 c 52.305 152.422 51.375 156.23 51.285 156.496 c 51.062 157.293 50.84 157.383
 49.246 157.426 c 48.895 157.426 48.629 157.426 48.629 158.004 c 48.629 
158.004 48.629 158.312 48.98 158.312 c 49.867 158.312 50.887 158.227 51.816
 158.227 c 52.746 158.227 53.766 158.312 54.738 158.312 c 54.871 158.312
 55.227 158.312 55.227 157.738 c 55.227 157.426 54.961 157.426 54.473 157.426
 c 53.145 157.426 53.145 157.25 53.145 156.984 c 53.145 156.762 53.188 156.586
 53.234 156.363 c h
49.336 152.512 m 47.609 152.512 47.52 150.34 47.52 149.855 c 47.52 148.48
 48.316 145.426 48.805 144.23 c 49.691 142.148 51.152 140.949 52.305 140.949
 c 54.164 140.949 54.562 143.254 54.562 143.43 c 54.562 143.609 53.012 149.809
 52.922 149.898 c 52.48 150.695 50.887 152.512 49.336 152.512 c h
49.336 152.512 m f
62.383 150.457 m 63.934 150.457 65.043 151.52 65.043 153.645 c 65.043 156.082
 63.582 156.836 62.473 156.836 c 61.676 156.836 59.902 156.613 59.105 155.418
 c 60.035 155.418 60.258 154.754 60.258 154.309 c 60.258 153.691 59.77 153.246
 59.152 153.246 c 58.621 153.246 58.043 153.602 58.043 154.398 c 58.043 
156.258 60.082 157.453 62.473 157.453 c 65.219 157.453 67.125 155.594 67.125
 153.645 c 67.125 152.094 65.883 150.547 63.715 150.102 c 65.75 149.348 
66.504 147.887 66.504 146.648 c 66.504 145.098 64.73 143.945 62.516 143.945
 c 60.348 143.945 58.664 145.008 58.664 146.602 c 58.664 147.27 59.105 147.621
 59.684 147.621 c 60.305 147.621 60.703 147.18 60.703 146.648 c 60.703 146.07
 60.305 145.629 59.684 145.586 c 60.391 144.742 61.719 144.523 62.473 144.523
 c 63.359 144.523 64.598 144.965 64.598 146.648 c 64.598 147.488 64.332 
148.418 63.801 148.996 c 63.184 149.746 62.605 149.793 61.633 149.883 c 
61.145 149.926 61.102 149.926 61.012 149.926 c 60.969 149.926 60.789 149.969
 60.789 150.191 c 60.789 150.457 60.969 150.457 61.32 150.457 c h
62.383 150.457 m f
56.977 193.066 m 56.977 192.934 56.887 192.801 56.711 192.801 c 56.398 
192.801 55.25 193.91 54.805 194.75 c 54.188 193.199 53.078 192.758 52.148
 192.758 c 48.828 192.758 45.371 196.922 45.371 201.039 c 45.371 203.785
 47.012 205.559 49.094 205.559 c 50.289 205.559 51.395 204.895 52.414 203.875
 c 52.148 204.848 51.219 208.656 51.129 208.922 c 50.91 209.719 50.688 209.809
 49.094 209.852 c 48.738 209.852 48.473 209.852 48.473 210.43 c 48.473 210.43
 48.473 210.738 48.828 210.738 c 49.711 210.738 50.73 210.652 51.66 210.652
 c 52.59 210.652 53.609 210.738 54.586 210.738 c 54.719 210.738 55.07 210.738
 55.07 210.164 c 55.07 209.852 54.805 209.852 54.32 209.852 c 52.988 209.852
 52.988 209.676 52.988 209.41 c 52.988 209.188 53.035 209.012 53.078 208.789
 c h
49.18 204.938 m 47.453 204.938 47.363 202.766 47.363 202.281 c 47.363 200.906
 48.164 197.852 48.648 196.656 c 49.535 194.574 50.996 193.375 52.148 193.375
 c 54.008 193.375 54.406 195.68 54.406 195.855 c 54.406 196.035 52.855 202.234
 52.77 202.324 c 52.324 203.121 50.73 204.938 49.18 204.938 c h
49.18 204.938 m f
67.277 206.25 m 67.277 205.539 l 65.062 205.539 l 65.062 196.727 l 65.062
 196.328 65.062 196.148 64.664 196.148 c 64.398 196.148 64.312 196.148 64.133
 196.461 c 57.578 205.539 l 57.578 206.25 l 63.426 206.25 l 63.426 207.844
 l 63.426 208.551 63.426 208.773 61.785 208.773 c 61.254 208.773 l 61.254
 209.48 l 62.273 209.438 63.516 209.395 64.223 209.395 c 64.977 209.395 
66.215 209.438 67.234 209.48 c 67.234 208.773 l 66.703 208.773 l 65.062 
208.773 65.062 208.551 65.062 207.844 c 65.062 206.25 l h
63.559 198.32 m 63.559 205.539 l 58.332 205.539 l h
63.559 198.32 m f
57.219 245.492 m 57.219 245.359 57.133 245.227 56.953 245.227 c 56.645 
245.227 55.492 246.336 55.051 247.176 c 54.43 245.625 53.32 245.184 52.391
 245.184 c 49.07 245.184 45.617 249.348 45.617 253.465 c 45.617 256.211 
47.254 257.984 49.336 257.984 c 50.531 257.984 51.641 257.32 52.656 256.301
 c 52.391 257.273 51.461 261.082 51.375 261.348 c 51.152 262.145 50.93 262.234
 49.336 262.277 c 48.98 262.277 48.715 262.277 48.715 262.855 c 48.715 262.855
 48.715 263.164 49.07 263.164 c 49.957 263.164 50.977 263.078 51.906 263.078
 c 52.836 263.078 53.855 263.164 54.828 263.164 c 54.961 263.164 55.316 
263.164 55.316 262.59 c 55.316 262.277 55.051 262.277 54.562 262.277 c 53.234
 262.277 53.234 262.102 53.234 261.836 c 53.234 261.613 53.277 261.438 53.32
 261.215 c h
49.426 257.363 m 47.695 257.363 47.609 255.191 47.609 254.707 c 47.609 
253.332 48.406 250.277 48.895 249.082 c 49.777 247 51.242 245.805 52.391
 245.805 c 54.254 245.805 54.652 248.105 54.652 248.281 c 54.652 248.461
 53.102 254.66 53.012 254.75 c 52.57 255.547 50.977 257.363 49.426 257.363
 c h
49.426 257.363 m f
60.125 250.879 m 61.145 251.145 61.719 251.145 62.031 251.145 c 64.645 
251.145 66.195 249.375 66.195 249.062 c 66.195 248.844 66.062 248.797 65.973
 248.797 c 65.93 248.797 65.883 248.797 65.797 248.844 c 65.309 249.02 64.289
 249.418 62.828 249.418 c 62.25 249.418 61.234 249.375 59.949 248.887 c 
59.727 248.797 59.684 248.797 59.684 248.797 c 59.418 248.797 59.418 249.02
 59.418 249.328 c 59.418 255.133 l 59.418 255.484 59.418 255.707 59.727 
255.707 c 59.902 255.707 59.949 255.707 60.125 255.441 c 60.969 254.379 
62.207 254.199 62.871 254.199 c 64.066 254.199 64.598 255.133 64.688 255.309
 c 65.043 255.973 65.176 256.727 65.176 257.879 c 65.176 258.453 65.176 
259.605 64.555 260.492 c 64.066 261.199 63.227 261.688 62.25 261.688 c 60.969
 261.688 59.637 260.977 59.152 259.648 c 59.902 259.691 60.305 259.207 60.305
 258.676 c 60.305 257.832 59.551 257.699 59.285 257.699 c 59.285 257.699
 58.309 257.699 58.309 258.762 c 58.309 260.535 59.949 262.305 62.297 262.305
 c 64.82 262.305 67.035 260.445 67.035 257.922 c 67.035 255.707 65.352 253.668
 62.914 253.668 c 62.031 253.668 61.012 253.848 60.125 254.602 c h
60.125 250.879 m f
56.051 297.918 m 56.051 297.785 55.961 297.652 55.781 297.652 c 55.473 
297.652 54.32 298.762 53.879 299.602 c 53.258 298.051 52.152 297.609 51.223
 297.609 c 47.898 297.609 44.445 301.773 44.445 305.891 c 44.445 308.637
 46.082 310.41 48.164 310.41 c 49.359 310.41 50.469 309.746 51.488 308.727
 c 51.223 309.699 50.289 313.508 50.203 313.773 c 49.98 314.57 49.758 314.66
 48.164 314.703 c 47.812 314.703 47.543 314.703 47.543 315.281 c 47.543 
315.281 47.543 315.59 47.898 315.59 c 48.785 315.59 49.805 315.504 50.734
 315.504 c 51.664 315.504 52.684 315.59 53.656 315.59 c 53.789 315.59 54.145
 315.59 54.145 315.016 c 54.145 314.703 53.879 314.703 53.391 314.703 c 
52.062 314.703 52.062 314.527 52.062 314.262 c 52.062 314.039 52.105 313.863
 52.152 313.641 c h
48.254 309.789 m 46.527 309.789 46.438 307.617 46.438 307.133 c 46.438 
305.758 47.234 302.703 47.723 301.508 c 48.609 299.426 50.07 298.23 51.223
 298.23 c 53.082 298.23 53.48 300.531 53.48 300.707 c 53.48 300.887 51.93
 307.086 51.84 307.176 c 51.398 307.973 49.805 309.789 48.254 309.789 c 
h
48.254 309.789 m f
58.867 307.867 m 58.867 306.273 59 304.812 59.754 303.57 c 60.418 302.508
 61.48 301.801 62.766 301.801 c 63.34 301.801 64.137 301.934 64.535 302.465
 c 64.047 302.508 63.605 302.863 63.605 303.438 c 63.605 303.926 63.961 
304.367 64.535 304.367 c 65.156 304.367 65.512 303.969 65.512 303.395 c 
65.512 302.242 64.668 301.223 62.719 301.223 c 59.887 301.223 56.961 303.836
 56.961 308.09 c 56.961 313.184 59.352 314.73 61.566 314.73 c 63.961 314.73
 66.043 312.871 66.043 310.305 c 66.043 307.777 64.047 305.918 61.746 305.918
 c 60.152 305.918 59.309 306.98 58.867 307.867 c h
61.566 314.113 m 60.551 314.113 59.797 313.535 59.352 312.652 c 59.086 
312.074 58.91 311.055 58.91 309.906 c 58.91 307.957 60.062 306.492 61.656
 306.492 c 62.543 306.492 63.164 306.848 63.648 307.559 c 64.137 308.309
 64.137 309.152 64.137 310.305 c 64.137 311.41 64.137 312.254 63.605 313.051
 c 63.164 313.715 62.5 314.113 61.566 314.113 c h
61.566 314.113 m f
333.074 35.789 m 333.074 35.656 332.984 35.523 332.809 35.523 c 332.5 35.523
 331.348 36.629 330.902 37.473 c 330.285 35.922 329.176 35.48 328.246 35.48
 c 324.926 35.48 321.469 39.645 321.469 43.762 c 321.469 46.508 323.109 
48.281 325.191 48.281 c 326.387 48.281 327.492 47.613 328.512 46.598 c 328.246
 47.57 327.316 51.379 327.227 51.645 c 327.008 52.441 326.785 52.531 325.191
 52.574 c 324.836 52.574 324.57 52.574 324.57 53.152 c 324.57 53.152 324.57
 53.461 324.926 53.461 c 325.809 53.461 326.828 53.371 327.758 53.371 c 
328.688 53.371 329.707 53.461 330.684 53.461 c 330.816 53.461 331.168 53.461
 331.168 52.887 c 331.168 52.574 330.902 52.574 330.418 52.574 c 329.09 
52.574 329.09 52.398 329.09 52.133 c 329.09 51.91 329.133 51.734 329.176
 51.512 c h
325.277 47.66 m 323.551 47.66 323.465 45.488 323.465 45 c 323.465 43.629
 324.262 40.574 324.746 39.375 c 325.633 37.297 327.094 36.098 328.246 36.098
 c 330.105 36.098 330.504 38.402 330.504 38.578 c 330.504 38.758 328.957
 44.957 328.867 45.047 c 328.422 45.844 326.828 47.66 325.277 47.66 c h
325.277 47.66 m f
339.523 39.625 m 339.523 39.094 339.523 39.094 338.949 39.094 c 337.664
 40.336 335.891 40.336 335.094 40.336 c 335.094 41.043 l 335.539 41.043 
336.867 41.043 337.93 40.512 c 337.93 50.566 l 337.93 51.23 337.93 51.496
 335.98 51.496 c 335.227 51.496 l 335.227 52.203 l 335.582 52.203 338.016
 52.117 338.727 52.117 c 339.348 52.117 341.828 52.203 342.27 52.203 c 342.27
 51.496 l 341.516 51.496 l 339.523 51.496 339.523 51.23 339.523 50.566 c
 h
339.523 39.625 m f
332.766 88.215 m 332.766 88.082 332.676 87.949 332.5 87.949 c 332.188 87.949
 331.035 89.059 330.594 89.898 c 329.973 88.348 328.867 87.906 327.938 87.906
 c 324.613 87.906 321.16 92.07 321.16 96.188 c 321.16 98.934 322.797 100.707
 324.879 100.707 c 326.074 100.707 327.184 100.039 328.203 99.023 c 327.938
 99.996 327.008 103.805 326.918 104.07 c 326.695 104.867 326.477 104.957
 324.879 105 c 324.527 105 324.262 105 324.262 105.578 c 324.262 105.578
 324.262 105.887 324.613 105.887 c 325.5 105.887 326.52 105.797 327.449 
105.797 c 328.379 105.797 329.398 105.887 330.371 105.887 c 330.504 105.887
 330.859 105.887 330.859 105.312 c 330.859 105 330.594 105 330.105 105 c
 328.777 105 328.777 104.824 328.777 104.559 c 328.777 104.336 328.82 104.16
 328.867 103.938 c h
324.969 100.086 m 323.242 100.086 323.152 97.914 323.152 97.426 c 323.152
 96.055 323.949 93 324.438 91.801 c 325.324 89.723 326.785 88.523 327.938
 88.523 c 329.797 88.523 330.195 90.828 330.195 91.004 c 330.195 91.184 
328.645 97.383 328.555 97.473 c 328.113 98.27 326.52 100.086 324.969 100.086
 c h
324.969 100.086 m f
342.578 101.043 m 341.914 101.043 l 341.871 101.484 341.648 102.637 341.383
 102.812 c 341.25 102.945 339.746 102.945 339.434 102.945 c 335.805 102.945
 l 337.883 101.133 338.594 100.555 339.746 99.625 c 341.207 98.473 342.578
 97.234 342.578 95.375 c 342.578 92.98 340.496 91.52 337.973 91.52 c 335.539
 91.52 333.855 93.246 333.855 95.062 c 333.855 96.039 334.695 96.172 334.918
 96.172 c 335.359 96.172 335.938 95.816 335.938 95.109 c 335.938 94.754 
335.805 94.043 334.785 94.043 c 335.406 92.672 336.734 92.23 337.664 92.23
 c 339.656 92.23 340.676 93.777 340.676 95.375 c 340.676 97.102 339.434 
98.43 338.816 99.137 c 334.074 103.879 l 333.855 104.055 333.855 104.098
 333.855 104.629 c 342.004 104.629 l h
342.578 101.043 m f
332.676 140.641 m 332.676 140.508 332.586 140.375 332.41 140.375 c 332.102
 140.375 330.949 141.484 330.504 142.324 c 329.887 140.773 328.777 140.332
 327.848 140.332 c 324.527 140.332 321.07 144.496 321.07 148.613 c 321.07
 151.359 322.711 153.133 324.793 153.133 c 325.988 153.133 327.094 152.465
 328.113 151.449 c 327.848 152.422 326.918 156.23 326.828 156.496 c 326.609
 157.293 326.387 157.383 324.793 157.426 c 324.438 157.426 324.172 157.426
 324.172 158.004 c 324.172 158.004 324.172 158.312 324.527 158.312 c 325.41
 158.312 326.43 158.227 327.359 158.227 c 328.289 158.227 329.309 158.312
 330.285 158.312 c 330.418 158.312 330.77 158.312 330.77 157.738 c 330.77
 157.426 330.504 157.426 330.02 157.426 c 328.688 157.426 328.688 157.25
 328.688 156.984 c 328.688 156.762 328.734 156.586 328.777 156.363 c h
324.879 152.512 m 323.152 152.512 323.062 150.34 323.062 149.855 c 323.062
 148.48 323.863 145.426 324.348 144.23 c 325.234 142.148 326.695 140.949
 327.848 140.949 c 329.707 140.949 330.105 143.254 330.105 143.43 c 330.105
 143.609 328.555 149.809 328.469 149.898 c 328.023 150.695 326.43 152.512
 324.879 152.512 c h
324.879 152.512 m f
337.93 150.457 m 339.48 150.457 340.586 151.52 340.586 153.645 c 340.586
 156.082 339.125 156.836 338.016 156.836 c 337.219 156.836 335.449 156.613
 334.652 155.418 c 335.582 155.418 335.805 154.754 335.805 154.309 c 335.805
 153.691 335.316 153.246 334.695 153.246 c 334.164 153.246 333.59 153.602
 333.59 154.398 c 333.59 156.258 335.625 157.453 338.016 157.453 c 340.762
 157.453 342.668 155.594 342.668 153.645 c 342.668 152.094 341.43 150.547
 339.258 150.102 c 341.297 149.348 342.047 147.887 342.047 146.648 c 342.047
 145.098 340.277 143.945 338.062 143.945 c 335.891 143.945 334.207 145.008
 334.207 146.602 c 334.207 147.27 334.652 147.621 335.227 147.621 c 335.848
 147.621 336.246 147.18 336.246 146.648 c 336.246 146.07 335.848 145.629
 335.227 145.586 c 335.938 144.742 337.266 144.523 338.016 144.523 c 338.902
 144.523 340.145 144.965 340.145 146.648 c 340.145 147.488 339.879 148.418
 339.348 148.996 c 338.727 149.746 338.148 149.793 337.176 149.883 c 336.688
 149.926 336.645 149.926 336.555 149.926 c 336.512 149.926 336.336 149.969
 336.336 150.191 c 336.336 150.457 336.512 150.457 336.867 150.457 c h
337.93 150.457 m f
332.52 193.066 m 332.52 192.934 332.434 192.801 332.254 192.801 c 331.945
 192.801 330.793 193.91 330.352 194.75 c 329.73 193.199 328.621 192.758 
327.691 192.758 c 324.371 192.758 320.918 196.922 320.918 201.039 c 320.918
 203.785 322.555 205.559 324.637 205.559 c 325.832 205.559 326.941 204.895
 327.957 203.875 c 327.691 204.848 326.762 208.656 326.676 208.922 c 326.453
 209.719 326.23 209.809 324.637 209.852 c 324.281 209.852 324.016 209.852
 324.016 210.43 c 324.016 210.43 324.016 210.738 324.371 210.738 c 325.258
 210.738 326.277 210.652 327.207 210.652 c 328.137 210.652 329.156 210.738
 330.129 210.738 c 330.262 210.738 330.617 210.738 330.617 210.164 c 330.617
 209.852 330.352 209.852 329.863 209.852 c 328.535 209.852 328.535 209.676
 328.535 209.41 c 328.535 209.188 328.578 209.012 328.621 208.789 c h
324.727 204.938 m 322.996 204.938 322.91 202.766 322.91 202.281 c 322.91
 200.906 323.707 197.852 324.195 196.656 c 325.078 194.574 326.543 193.375
 327.691 193.375 c 329.555 193.375 329.953 195.68 329.953 195.855 c 329.953
 196.035 328.402 202.234 328.312 202.324 c 327.871 203.121 326.277 204.938
 324.727 204.938 c h
324.727 204.938 m f
342.824 206.25 m 342.824 205.539 l 340.609 205.539 l 340.609 196.727 l 
340.609 196.328 340.609 196.148 340.211 196.148 c 339.945 196.148 339.855
 196.148 339.68 196.461 c 333.125 205.539 l 333.125 206.25 l 338.969 206.25
 l 338.969 207.844 l 338.969 208.551 338.969 208.773 337.332 208.773 c 336.801
 208.773 l 336.801 209.48 l 337.816 209.438 339.059 209.395 339.766 209.395
 c 340.52 209.395 341.762 209.438 342.777 209.48 c 342.777 208.773 l 342.246
 208.773 l 340.609 208.773 340.609 208.551 340.609 207.844 c 340.609 206.25
 l h
339.102 198.32 m 339.102 205.539 l 333.875 205.539 l h
339.102 198.32 m f
332.766 245.492 m 332.766 245.359 332.676 245.227 332.5 245.227 c 332.188
 245.227 331.035 246.336 330.594 247.176 c 329.973 245.625 328.867 245.184
 327.938 245.184 c 324.613 245.184 321.16 249.348 321.16 253.465 c 321.16
 256.211 322.797 257.984 324.879 257.984 c 326.074 257.984 327.184 257.32
 328.203 256.301 c 327.938 257.273 327.008 261.082 326.918 261.348 c 326.695
 262.145 326.477 262.234 324.879 262.277 c 324.527 262.277 324.262 262.277
 324.262 262.855 c 324.262 262.855 324.262 263.164 324.613 263.164 c 325.5
 263.164 326.52 263.078 327.449 263.078 c 328.379 263.078 329.398 263.164
 330.371 263.164 c 330.504 263.164 330.859 263.164 330.859 262.59 c 330.859
 262.277 330.594 262.277 330.105 262.277 c 328.777 262.277 328.777 262.102
 328.777 261.836 c 328.777 261.613 328.82 261.438 328.867 261.215 c h
324.969 257.363 m 323.242 257.363 323.152 255.191 323.152 254.707 c 323.152
 253.332 323.949 250.277 324.438 249.082 c 325.324 247 326.785 245.805 327.938
 245.805 c 329.797 245.805 330.195 248.105 330.195 248.281 c 330.195 248.461
 328.645 254.66 328.555 254.75 c 328.113 255.547 326.52 257.363 324.969 
257.363 c h
324.969 257.363 m f
335.672 250.879 m 336.688 251.145 337.266 251.145 337.574 251.145 c 340.188
 251.145 341.738 249.375 341.738 249.062 c 341.738 248.844 341.605 248.797
 341.516 248.797 c 341.473 248.797 341.43 248.797 341.34 248.844 c 340.852
 249.02 339.832 249.418 338.371 249.418 c 337.797 249.418 336.777 249.375
 335.492 248.887 c 335.27 248.797 335.227 248.797 335.227 248.797 c 334.961
 248.797 334.961 249.02 334.961 249.328 c 334.961 255.133 l 334.961 255.484
 334.961 255.707 335.27 255.707 c 335.449 255.707 335.492 255.707 335.672
 255.441 c 336.512 254.379 337.75 254.199 338.418 254.199 c 339.613 254.199
 340.145 255.133 340.23 255.309 c 340.586 255.973 340.719 256.727 340.719
 257.879 c 340.719 258.453 340.719 259.605 340.098 260.492 c 339.613 261.199
 338.77 261.688 337.797 261.688 c 336.512 261.688 335.184 260.977 334.695
 259.648 c 335.449 259.691 335.848 259.207 335.848 258.676 c 335.848 257.832
 335.094 257.699 334.828 257.699 c 334.828 257.699 333.855 257.699 333.855
 258.762 c 333.855 260.535 335.492 262.305 337.84 262.305 c 340.363 262.305
 342.578 260.445 342.578 257.922 c 342.578 255.707 340.895 253.668 338.461
 253.668 c 337.574 253.668 336.555 253.848 335.672 254.602 c h
335.672 250.879 m f
331.594 297.918 m 331.594 297.785 331.504 297.652 331.328 297.652 c 331.016
 297.652 329.867 298.762 329.422 299.602 c 328.805 298.051 327.695 297.609
 326.766 297.609 c 323.445 297.609 319.988 301.773 319.988 305.891 c 319.988
 308.637 321.629 310.41 323.711 310.41 c 324.906 310.41 326.012 309.746 
327.031 308.727 c 326.766 309.699 325.836 313.508 325.746 313.773 c 325.523
 314.57 325.305 314.66 323.711 314.703 c 323.355 314.703 323.09 314.703 
323.09 315.281 c 323.09 315.281 323.09 315.59 323.445 315.59 c 324.328 315.59
 325.348 315.504 326.277 315.504 c 327.207 315.504 328.227 315.59 329.203
 315.59 c 329.336 315.59 329.688 315.59 329.688 315.016 c 329.688 314.703
 329.422 314.703 328.938 314.703 c 327.605 314.703 327.605 314.527 327.605
 314.262 c 327.605 314.039 327.652 313.863 327.695 313.641 c h
323.797 309.789 m 322.07 309.789 321.98 307.617 321.98 307.133 c 321.98
 305.758 322.777 302.703 323.266 301.508 c 324.152 299.426 325.613 298.23
 326.766 298.23 c 328.625 298.23 329.023 300.531 329.023 300.707 c 329.023
 300.887 327.473 307.086 327.387 307.176 c 326.941 307.973 325.348 309.789
 323.797 309.789 c h
323.797 309.789 m f
334.41 307.867 m 334.41 306.273 334.543 304.812 335.297 303.57 c 335.961
 302.508 337.023 301.801 338.309 301.801 c 338.883 301.801 339.68 301.934
 340.078 302.465 c 339.594 302.508 339.148 302.863 339.148 303.438 c 339.148
 303.926 339.504 304.367 340.078 304.367 c 340.699 304.367 341.055 303.969
 341.055 303.395 c 341.055 302.242 340.211 301.223 338.266 301.223 c 335.43
 301.223 332.508 303.836 332.508 308.09 c 332.508 313.184 334.898 314.73
 337.113 314.73 c 339.504 314.73 341.586 312.871 341.586 310.305 c 341.586
 307.777 339.594 305.918 337.289 305.918 c 335.695 305.918 334.852 306.98
 334.41 307.867 c h
337.113 314.113 m 336.094 314.113 335.34 313.535 334.898 312.652 c 334.633
 312.074 334.453 311.055 334.453 309.906 c 334.453 307.957 335.605 306.492
 337.199 306.492 c 338.086 306.492 338.707 306.848 339.195 307.559 c 339.68
 308.309 339.68 309.152 339.68 310.305 c 339.68 311.41 339.68 312.254 339.148
 313.051 c 338.707 313.715 338.043 314.113 337.113 314.113 c h
337.113 314.113 m f
121.48 175.801 m 121.48 172.699 l 117.539 173.012 l 117.539 173.895 l 119.531
 173.895 119.754 174.074 119.754 175.492 c 119.754 183.066 l 119.754 184.305
 119.445 184.305 117.539 184.305 c 117.539 185.191 l 118.648 185.145 119.977
 185.102 120.773 185.102 c 121.879 185.102 123.207 185.102 124.359 185.191
 c 124.359 184.305 l 123.742 184.305 l 121.66 184.305 121.613 183.996 121.613
 182.977 c 121.613 178.637 l 121.613 175.844 122.809 173.32 124.938 173.32
 c 125.113 173.32 125.203 173.32 125.246 173.363 c 125.156 173.363 124.582
 173.719 124.582 174.473 c 124.582 175.227 125.203 175.668 125.82 175.668
 c 126.309 175.668 127.02 175.312 127.02 174.43 c 127.02 173.543 126.133
 172.699 124.938 172.699 c 122.855 172.699 121.836 174.605 121.48 175.801
 c h
121.48 175.801 m f
141.09 179.121 m 141.09 175.535 138.301 172.523 134.891 172.523 c 131.348
 172.523 128.602 175.625 128.602 179.121 c 128.602 182.797 131.523 185.5
 134.848 185.5 c 138.258 185.5 141.09 182.711 141.09 179.121 c h
134.891 184.793 m 133.652 184.793 132.41 184.215 131.656 182.887 c 130.949
 181.648 130.949 179.918 130.949 178.902 c 130.949 177.793 130.949 176.289
 131.613 175.047 c 132.367 173.762 133.695 173.145 134.848 173.145 c 136.086
 173.145 137.281 173.762 138.035 175.004 c 138.789 176.199 138.789 177.84
 138.789 178.902 c 138.789 179.918 138.789 181.469 138.168 182.711 c 137.504
 183.996 136.262 184.793 134.891 184.793 c h
134.891 184.793 m f
146.797 174.516 m 146.797 165.57 l 142.723 165.879 l 142.723 166.766 l 
144.715 166.766 144.938 166.941 144.938 168.359 c 144.938 185.191 l 145.645
 185.191 l 145.645 185.145 145.867 184.746 146.664 183.418 c 147.062 184.082
 148.258 185.5 150.34 185.5 c 153.707 185.5 156.629 182.711 156.629 179.078
 c 156.629 175.492 153.883 172.699 150.648 172.699 c 148.434 172.699 147.238
 174.027 146.797 174.516 c h
146.887 181.957 m 146.887 176.156 l 146.887 175.625 146.887 175.578 147.195
 175.137 c 148.301 173.543 149.852 173.32 150.516 173.32 c 151.801 173.32
 152.82 174.074 153.484 175.137 c 154.238 176.289 154.281 177.883 154.281
 179.078 c 154.281 180.098 154.238 181.781 153.441 183.066 c 152.82 183.949
 151.758 184.879 150.25 184.879 c 148.965 184.879 147.949 184.215 147.285
 183.152 c 146.887 182.578 146.887 182.488 146.887 181.957 c h
146.887 181.957 m f
171.691 179.121 m 171.691 175.535 168.902 172.523 165.492 172.523 c 161.949
 172.523 159.203 175.625 159.203 179.121 c 159.203 182.797 162.125 185.5
 165.449 185.5 c 168.859 185.5 171.691 182.711 171.691 179.121 c h
165.492 184.793 m 164.25 184.793 163.012 184.215 162.258 182.887 c 161.551
 181.648 161.551 179.918 161.551 178.902 c 161.551 177.793 161.551 176.289
 162.215 175.047 c 162.969 173.762 164.297 173.145 165.449 173.145 c 166.688
 173.145 167.883 173.762 168.637 175.004 c 169.391 176.199 169.391 177.84
 169.391 178.902 c 169.391 179.918 169.391 181.469 168.77 182.711 c 168.105
 183.996 166.863 184.793 165.492 184.793 c h
165.492 184.793 m f
177.398 173.895 m 181.473 173.895 l 181.473 173.012 l 177.398 173.012 l
 177.398 167.828 l 176.688 167.828 l 176.688 170.133 175.848 173.145 173.059
 173.277 c 173.059 173.895 l 175.449 173.895 l 175.449 181.691 l 175.449
 185.145 178.105 185.5 179.125 185.5 c 181.117 185.5 181.914 183.508 181.914
 181.691 c 181.914 180.098 l 181.207 180.098 l 181.207 181.648 l 181.207
 183.73 180.363 184.793 179.301 184.793 c 177.398 184.793 177.398 182.223
 177.398 181.734 c h
177.398 173.895 m f
196.012 175.492 m 196.012 183.066 l 196.012 184.305 195.703 184.305 193.797
 184.305 c 193.797 185.191 l 194.816 185.145 196.234 185.102 197.031 185.102
 c 197.738 185.102 199.203 185.145 200.176 185.191 c 200.176 184.305 l 198.273
 184.305 197.961 184.305 197.961 183.066 c 197.961 177.84 l 197.961 174.914
 200 173.32 201.77 173.32 c 203.586 173.32 203.898 174.828 203.898 176.465
 c 203.898 183.066 l 203.898 184.305 203.586 184.305 201.684 184.305 c 201.684
 185.191 l 202.656 185.145 204.117 185.102 204.871 185.102 c 205.578 185.102
 207.086 185.145 208.016 185.191 c 208.016 184.305 l 206.156 184.305 205.844
 184.305 205.844 183.066 c 205.844 177.84 l 205.844 174.914 207.84 173.32
 209.656 173.32 c 211.426 173.32 211.734 174.828 211.734 176.465 c 211.734
 183.066 l 211.734 184.305 211.426 184.305 209.523 184.305 c 209.523 185.191
 l 210.496 185.145 211.957 185.102 212.711 185.102 c 213.465 185.102 214.926
 185.145 215.898 185.191 c 215.898 184.305 l 214.438 184.305 213.73 184.305
 213.684 183.465 c 213.684 178.059 l 213.684 175.625 213.684 174.781 212.801
 173.762 c 212.402 173.277 211.469 172.699 209.832 172.699 c 207.484 172.699
 206.199 174.383 205.758 175.492 c 205.359 173.012 203.277 172.699 201.992
 172.699 c 199.91 172.699 198.582 173.895 197.785 175.668 c 197.785 172.699
 l 193.797 173.012 l 193.797 173.895 l 195.793 173.895 196.012 174.074 196.012
 175.492 c h
196.012 175.492 m f
229.734 179.121 m 229.734 175.535 226.941 172.523 223.531 172.523 c 219.988
 172.523 217.242 175.625 217.242 179.121 c 217.242 182.797 220.164 185.5
 223.488 185.5 c 226.898 185.5 229.734 182.711 229.734 179.121 c h
223.531 184.793 m 222.293 184.793 221.051 184.215 220.297 182.887 c 219.59
 181.648 219.59 179.918 219.59 178.902 c 219.59 177.793 219.59 176.289 220.254
 175.047 c 221.008 173.762 222.336 173.145 223.488 173.145 c 224.727 173.145
 225.922 173.762 226.676 175.004 c 227.43 176.199 227.43 177.84 227.43 178.902
 c 227.43 179.918 227.43 181.469 226.809 182.711 c 226.145 183.996 224.906
 184.793 223.531 184.793 c h
223.531 184.793 m f
242.074 183.641 m 242.074 185.5 l 246.238 185.191 l 246.238 184.305 l 244.289
 184.305 244.023 184.129 244.023 182.711 c 244.023 165.57 l 239.992 165.879
 l 239.992 166.766 l 241.941 166.766 242.164 166.941 242.164 168.359 c 242.164
 174.473 l 241.367 173.453 240.125 172.699 238.621 172.699 c 235.297 172.699
 232.332 175.492 232.332 179.121 c 232.332 182.711 235.078 185.5 238.309
 185.5 c 240.125 185.5 241.367 184.527 242.074 183.641 c h
242.074 176.066 m 242.074 181.867 l 242.074 182.355 242.074 182.398 241.766
 182.887 c 240.922 184.262 239.684 184.879 238.441 184.879 c 237.16 184.879
 236.141 184.129 235.477 183.066 c 234.766 181.914 234.68 180.32 234.68 
179.121 c 234.68 178.105 234.723 176.422 235.52 175.137 c 236.141 174.25
 237.203 173.32 238.754 173.32 c 239.727 173.32 240.922 173.762 241.766 
175.004 c 242.074 175.492 242.074 175.535 242.074 176.066 c h
242.074 176.066 m f
250.191 178.059 m 250.367 173.852 252.762 173.145 253.734 173.145 c 256.613
 173.145 256.922 176.953 256.922 178.059 c h
250.191 178.68 m 258.074 178.68 l 258.695 178.68 258.785 178.68 258.785
 178.059 c 258.785 175.27 257.234 172.523 253.734 172.523 c 250.457 172.523
 247.844 175.445 247.844 178.988 c 247.844 182.754 250.812 185.5 254.043
 185.5 c 257.5 185.5 258.785 182.355 258.785 181.824 c 258.785 181.559 258.562
 181.469 258.387 181.469 c 258.164 181.469 258.074 181.648 258.031 181.867
 c 257.055 184.793 254.488 184.793 254.223 184.793 c 252.805 184.793 251.695
 183.949 251.031 182.887 c 250.191 181.559 250.191 179.699 250.191 178.68
 c h
250.191 178.68 m f
264.602 165.57 m 260.527 165.879 l 260.527 166.766 l 262.52 166.766 262.742
 166.941 262.742 168.359 c 262.742 183.066 l 262.742 184.305 262.43 184.305
 260.527 184.305 c 260.527 185.191 l 261.457 185.145 262.961 185.102 263.672
 185.102 c 264.379 185.102 265.754 185.145 266.816 185.191 c 266.816 184.305
 l 264.91 184.305 264.602 184.305 264.602 183.066 c h
264.602 165.57 m f
Q Q
showpage
%%Trailer
end
%%EOF
