%!PS-Adobe-3.0 EPSF-3.0
%%Creator: cairo 1.16.0 (https://cairographics.org)
%%CreationDate: Tue Nov 23 22:57:11 2021
%%Pages: 1
%%DocumentData: Clean7Bit
%%LanguageLevel: 2
%%BoundingBox: 0 0 761 186
%%EndComments
%%BeginProlog
50 dict begin
/q { gsave } bind def
/Q { grestore } bind def
/cm { 6 array astore concat } bind def
/w { setlinewidth } bind def
/J { setlinecap } bind def
/j { setlinejoin } bind def
/M { setmiterlimit } bind def
/d { setdash } bind def
/m { moveto } bind def
/l { lineto } bind def
/c { curveto } bind def
/h { closepath } bind def
/re { exch dup neg 3 1 roll 5 3 roll moveto 0 rlineto
      0 exch rlineto 0 rlineto closepath } bind def
/S { stroke } bind def
/f { fill } bind def
/f* { eofill } bind def
/n { newpath } bind def
/W { clip } bind def
/W* { eoclip } bind def
/BT { } bind def
/ET { } bind def
/BDC { mark 3 1 roll /BDC pdfmark } bind def
/EMC { mark /EMC pdfmark } bind def
/cairo_store_point { /cairo_point_y exch def /cairo_point_x exch def } def
/Tj { show currentpoint cairo_store_point } bind def
/TJ {
  {
    dup
    type /stringtype eq
    { show } { -0.001 mul 0 cairo_font_matrix dtransform rmoveto } ifelse
  } forall
  currentpoint cairo_store_point
} bind def
/cairo_selectfont { cairo_font_matrix aload pop pop pop 0 0 6 array astore
    cairo_font exch selectfont cairo_point_x cairo_point_y moveto } bind def
/Tf { pop /cairo_font exch def /cairo_font_matrix where
      { pop cairo_selectfont } if } bind def
/Td { matrix translate cairo_font_matrix matrix concatmatrix dup
      /cairo_font_matrix exch def dup 4 get exch 5 get cairo_store_point
      /cairo_font where { pop cairo_selectfont } if } bind def
/Tm { 2 copy 8 2 roll 6 array astore /cairo_font_matrix exch def
      cairo_store_point /cairo_font where { pop cairo_selectfont } if } bind def
/g { setgray } bind def
/rg { setrgbcolor } bind def
/d1 { setcachedevice } bind def
/cairo_data_source {
  CairoDataIndex CairoData length lt
    { CairoData CairoDataIndex get /CairoDataIndex CairoDataIndex 1 add def }
    { () } ifelse
} def
/cairo_flush_ascii85_file { cairo_ascii85_file status { cairo_ascii85_file flushfile } if } def
/cairo_image { image cairo_flush_ascii85_file } def
/cairo_imagemask { imagemask cairo_flush_ascii85_file } def
%%EndProlog
%%BeginSetup
%%EndSetup
%%Page: 1 1
%%BeginPageSetup
%%PageBoundingBox: 0 0 761 186
%%EndPageSetup
q 0 0 761 186 rectclip
1 0 0 -1 0 186 cm q
1 g
199.824 67.152 162.656 116.539 re f
0 g
2.882835 w
0 J
0 j
[] 0.0 d
4 M q 1 0 0 1 0 0 cm
199.824 67.152 162.656 116.539 re S Q
241.656 103.93 m 237.449 104.262 l 237.449 105.207 l 239.387 105.207 239.668
 105.398 239.668 106.863 c 239.668 114.992 l 239.668 116.316 239.34 116.316
 237.305 116.316 c 237.305 117.262 l 238.25 117.215 239.906 117.168 240.617
 117.168 c 241.703 117.168 242.742 117.215 243.781 117.262 c 243.781 116.316
 l 241.75 116.316 241.656 116.176 241.656 114.992 c h
241.75 98.684 m 241.75 97.738 241.039 97.074 240.191 97.074 c 239.246 97.074
 238.582 97.879 238.582 98.684 c 238.582 99.488 239.246 100.289 240.191 
100.289 c 241.039 100.289 241.75 99.629 241.75 98.684 c h
241.75 98.684 m f
247.996 106.91 m 247.996 114.992 l 247.996 116.316 247.664 116.316 245.633
 116.316 c 245.633 117.262 l 246.719 117.215 248.234 117.168 249.086 117.168
 c 249.84 117.168 251.402 117.215 252.441 117.262 c 252.441 116.316 l 250.406
 116.316 250.078 116.316 250.078 114.992 c 250.078 109.414 l 250.078 106.293
 252.25 104.594 254.145 104.594 c 256.082 104.594 256.414 106.199 256.414
 107.949 c 256.414 114.992 l 256.414 116.316 256.082 116.316 254.047 116.316
 c 254.047 117.262 l 255.09 117.215 256.648 117.168 257.453 117.168 c 258.207
 117.168 259.816 117.215 260.809 117.262 c 260.809 116.316 l 259.25 116.316
 258.492 116.316 258.492 115.418 c 258.492 109.652 l 258.492 107.051 258.492
 106.152 257.547 105.066 c 257.121 104.547 256.129 103.93 254.379 103.93
 c 252.156 103.93 250.738 105.207 249.887 107.098 c 249.887 103.93 l 245.633
 104.262 l 245.633 105.207 l 247.762 105.207 247.996 105.398 247.996 106.91
 c h
247.996 106.91 m f
273.121 107.242 m 273.406 106.531 273.926 105.207 275.91 105.207 c 275.91
 104.262 l 275.199 104.309 274.352 104.355 273.641 104.355 c 272.93 104.355
 271.559 104.309 271.039 104.262 c 271.039 105.207 l 272.129 105.207 272.457
 105.918 272.457 106.484 c 272.457 106.77 272.41 106.91 272.316 107.242 
c 269.195 114.898 l 265.84 106.484 l 265.652 106.105 265.652 106.059 265.652
 105.965 c 265.652 105.207 266.832 105.207 267.398 105.207 c 267.398 104.262
 l 266.453 104.309 264.801 104.355 264.09 104.355 c 263.285 104.355 262.059
 104.309 261.16 104.262 c 261.16 105.207 l 263.051 105.207 263.191 105.398
 263.57 106.293 c 267.922 117.027 l 268.109 117.453 268.156 117.594 268.535
 117.594 c 268.961 117.594 269.055 117.312 269.195 117.027 c h
273.121 107.242 m f
279.016 109.652 m 279.203 105.16 281.758 104.402 282.797 104.402 c 285.871
 104.402 286.203 108.469 286.203 109.652 c h
279.016 110.312 m 287.43 110.312 l 288.094 110.312 288.188 110.312 288.188
 109.652 c 288.188 106.672 286.531 103.742 282.797 103.742 c 279.301 103.742
 276.508 106.863 276.508 110.645 c 276.508 114.664 279.676 117.594 283.129
 117.594 c 286.816 117.594 288.188 114.238 288.188 113.672 c 288.188 113.387
 287.949 113.293 287.762 113.293 c 287.527 113.293 287.43 113.48 287.383
 113.719 c 286.344 116.84 283.602 116.84 283.316 116.84 c 281.805 116.84
 280.621 115.941 279.914 114.805 c 279.016 113.387 279.016 111.402 279.016
 110.312 c h
279.016 110.312 m f
294.113 107.242 m 294.113 103.93 l 289.906 104.262 l 289.906 105.207 l 
292.035 105.207 292.27 105.398 292.27 106.91 c 292.27 114.992 l 292.27 116.316
 291.938 116.316 289.906 116.316 c 289.906 117.262 l 291.09 117.215 292.508
 117.168 293.355 117.168 c 294.539 117.168 295.957 117.168 297.188 117.262
 c 297.188 116.316 l 296.523 116.316 l 294.305 116.316 294.254 115.988 294.254
 114.898 c 294.254 110.266 l 294.254 107.289 295.531 104.594 297.801 104.594
 c 297.992 104.594 298.086 104.594 298.133 104.641 c 298.039 104.641 297.422
 105.02 297.422 105.82 c 297.422 106.625 298.086 107.098 298.746 107.098
 c 299.266 107.098 300.023 106.719 300.023 105.773 c 300.023 104.828 299.078
 103.93 297.801 103.93 c 295.578 103.93 294.492 105.965 294.113 107.242 
c h
294.113 107.242 m f
307.152 111.402 m 307.812 111.543 310.27 112.016 310.27 114.191 c 310.27
 115.703 309.23 116.934 306.867 116.934 c 304.312 116.934 303.227 115.23
 302.66 112.629 c 302.566 112.25 302.566 112.156 302.234 112.156 c 301.855
 112.156 301.855 112.348 301.855 112.867 c 301.855 116.887 l 301.855 117.406
 301.855 117.594 302.188 117.594 c 302.328 117.594 302.375 117.547 302.941
 116.98 c 302.992 116.934 302.992 116.887 303.559 116.316 c 304.883 117.547
 306.254 117.594 306.867 117.594 c 310.32 117.594 311.738 115.562 311.738
 113.387 c 311.738 111.828 310.84 110.879 310.461 110.551 c 309.469 109.559
 308.285 109.32 307.008 109.086 c 305.309 108.754 303.32 108.375 303.32 
106.625 c 303.32 105.539 304.078 104.309 306.68 104.309 c 309.988 104.309
 310.176 107.051 310.223 107.949 c 310.223 108.234 310.508 108.234 310.555
 108.234 c 310.98 108.234 310.98 108.09 310.98 107.523 c 310.98 104.449 
l 310.98 103.977 310.98 103.742 310.648 103.742 c 310.508 103.742 310.414
 103.742 310.035 104.121 c 309.941 104.215 309.656 104.5 309.516 104.594
 c 308.379 103.742 307.152 103.742 306.68 103.742 c 302.992 103.742 301.855
 105.773 301.855 107.477 c 301.855 108.516 302.328 109.367 303.133 110.031
 c 304.125 110.785 304.977 110.977 307.152 111.402 c h
307.152 111.402 m f
316.109 109.652 m 316.297 105.16 318.852 104.402 319.891 104.402 c 322.965
 104.402 323.297 108.469 323.297 109.652 c h
316.109 110.312 m 324.523 110.312 l 325.188 110.312 325.281 110.312 325.281
 109.652 c 325.281 106.672 323.625 103.742 319.891 103.742 c 316.395 103.742
 313.602 106.863 313.602 110.645 c 313.602 114.664 316.77 117.594 320.223
 117.594 c 323.91 117.594 325.281 114.238 325.281 113.672 c 325.281 113.387
 325.043 113.293 324.855 113.293 c 324.617 113.293 324.523 113.48 324.477
 113.719 c 323.438 116.84 320.695 116.84 320.41 116.84 c 318.898 116.84 
317.715 115.941 317.008 114.805 c 316.109 113.387 316.109 111.402 316.109
 110.312 c h
316.109 110.312 m f
214.445 151.168 m 214.445 152.492 214.117 152.492 212.082 152.492 c 212.082
 153.438 l 213.074 153.391 214.492 153.344 215.344 153.344 c 216.289 153.344
 217.473 153.391 218.703 153.438 c 218.703 152.492 l 216.668 152.492 216.336
 152.492 216.336 151.168 c 216.336 148.047 l 218.277 146.395 l 220.594 149.562
 221.871 151.262 221.871 151.828 c 221.871 152.398 221.348 152.492 220.781
 152.492 c 220.781 153.438 l 221.586 153.391 223.383 153.344 224.043 153.344
 c 224.895 153.344 225.793 153.391 226.645 153.438 c 226.645 152.492 l 225.512
 152.492 224.848 152.492 223.715 150.883 c 219.883 145.496 l 219.836 145.449
 219.695 145.258 219.695 145.164 c 219.695 145.07 221.871 143.227 222.152
 142.988 c 224.043 141.477 225.32 141.383 225.934 141.383 c 225.934 140.438
 l 225.086 140.531 224.707 140.531 223.855 140.531 c 222.77 140.531 220.875
 140.484 220.449 140.438 c 220.449 141.383 l 221.02 141.383 221.348 141.711
 221.348 142.137 c 221.348 142.754 220.926 143.082 220.688 143.32 c 216.434
 146.961 l 216.434 132.492 l 212.082 132.824 l 212.082 133.77 l 214.211 
133.77 214.445 133.957 214.445 135.473 c h
214.445 151.168 m f
232.484 140.105 m 228.277 140.438 l 228.277 141.383 l 230.215 141.383 230.5
 141.57 230.5 143.035 c 230.5 151.168 l 230.5 152.492 230.168 152.492 228.137
 152.492 c 228.137 153.438 l 229.082 153.391 230.734 153.344 231.445 153.344
 c 232.531 153.344 233.57 153.391 234.613 153.438 c 234.613 152.492 l 232.578
 152.492 232.484 152.352 232.484 151.168 c h
232.578 134.855 m 232.578 133.91 231.871 133.25 231.02 133.25 c 230.074
 133.25 229.41 134.055 229.41 134.855 c 229.41 135.66 230.074 136.465 231.02
 136.465 c 231.871 136.465 232.578 135.801 232.578 134.855 c h
232.578 134.855 m f
238.824 143.082 m 238.824 151.168 l 238.824 152.492 238.496 152.492 236.461
 152.492 c 236.461 153.438 l 237.551 153.391 239.062 153.344 239.914 153.344
 c 240.672 153.344 242.23 153.391 243.27 153.438 c 243.27 152.492 l 241.238
 152.492 240.906 152.492 240.906 151.168 c 240.906 145.59 l 240.906 142.469
 243.082 140.766 244.973 140.766 c 246.91 140.766 247.242 142.375 247.242
 144.125 c 247.242 151.168 l 247.242 152.492 246.91 152.492 244.879 152.492
 c 244.879 153.438 l 245.918 153.391 247.477 153.344 248.281 153.344 c 249.039
 153.344 250.645 153.391 251.641 153.438 c 251.641 152.492 l 250.078 152.492
 249.32 152.492 249.32 151.594 c 249.32 145.824 l 249.32 143.227 249.32 
142.328 248.375 141.238 c 247.949 140.719 246.957 140.105 245.207 140.105
 c 242.988 140.105 241.566 141.383 240.719 143.273 c 240.719 140.105 l 236.461
 140.438 l 236.461 141.383 l 238.59 141.383 238.824 141.57 238.824 143.082
 c h
238.824 143.082 m f
255.621 145.824 m 255.812 141.336 258.363 140.578 259.406 140.578 c 262.477
 140.578 262.809 144.645 262.809 145.824 c h
255.621 146.488 m 264.039 146.488 l 264.699 146.488 264.793 146.488 264.793
 145.824 c 264.793 142.848 263.141 139.914 259.406 139.914 c 255.906 139.914
 253.117 143.035 253.117 146.82 c 253.117 150.836 256.285 153.77 259.734
 153.77 c 263.422 153.77 264.793 150.41 264.793 149.844 c 264.793 149.562
 264.559 149.465 264.367 149.465 c 264.133 149.465 264.039 149.656 263.992
 149.891 c 262.949 153.012 260.207 153.012 259.926 153.012 c 258.41 153.012
 257.23 152.113 256.52 150.98 c 255.621 149.562 255.621 147.574 255.621 
146.488 c h
255.621 146.488 m f
268.973 143.082 m 268.973 151.168 l 268.973 152.492 268.641 152.492 266.609
 152.492 c 266.609 153.438 l 267.695 153.391 269.207 153.344 270.059 153.344
 c 270.816 153.344 272.375 153.391 273.414 153.438 c 273.414 152.492 l 271.383
 152.492 271.051 152.492 271.051 151.168 c 271.051 145.59 l 271.051 142.469
 273.227 140.766 275.117 140.766 c 277.055 140.766 277.387 142.375 277.387
 144.125 c 277.387 151.168 l 277.387 152.492 277.055 152.492 275.023 152.492
 c 275.023 153.438 l 276.062 153.391 277.625 153.344 278.426 153.344 c 279.184
 153.344 280.793 153.391 281.785 153.438 c 281.785 152.492 l 279.797 152.492
 279.469 152.492 279.469 151.168 c 279.469 145.59 l 279.469 142.469 281.594
 140.766 283.535 140.766 c 285.426 140.766 285.754 142.375 285.754 144.125
 c 285.754 151.168 l 285.754 152.492 285.426 152.492 283.391 152.492 c 283.391
 153.438 l 284.43 153.391 285.992 153.344 286.797 153.344 c 287.598 153.344
 289.16 153.391 290.199 153.438 c 290.199 152.492 l 288.641 152.492 287.883
 152.492 287.836 151.594 c 287.836 145.824 l 287.836 143.227 287.836 142.328
 286.891 141.238 c 286.465 140.719 285.473 140.105 283.723 140.105 c 281.215
 140.105 279.844 141.902 279.371 143.082 c 278.945 140.438 276.727 140.105
 275.355 140.105 c 273.133 140.105 271.715 141.383 270.863 143.273 c 270.863
 140.105 l 266.609 140.438 l 266.609 141.383 l 268.734 141.383 268.973 141.57
 268.973 143.082 c h
268.973 143.082 m f
300.805 151.168 m 300.945 152.352 301.75 153.625 303.168 153.625 c 303.832
 153.625 305.676 153.199 305.676 150.742 c 305.676 149.039 l 304.918 149.039
 l 304.918 150.742 l 304.918 152.492 304.16 152.68 303.832 152.68 c 302.84
 152.68 302.695 151.309 302.695 151.168 c 302.695 145.164 l 302.695 143.887
 302.695 142.707 301.609 141.57 c 300.426 140.387 298.914 139.914 297.496
 139.914 c 294.988 139.914 292.91 141.336 292.91 143.32 c 292.91 144.219
 293.523 144.738 294.328 144.738 c 295.18 144.738 295.699 144.125 295.699
 143.367 c 295.699 142.988 295.559 141.996 294.141 141.996 c 294.988 140.91
 296.457 140.578 297.402 140.578 c 298.914 140.578 300.617 141.758 300.617
 144.453 c 300.617 145.543 l 299.055 145.637 296.977 145.73 295.086 146.629
 c 292.816 147.668 292.059 149.23 292.059 150.555 c 292.059 153.012 294.988
 153.77 296.883 153.77 c 298.867 153.77 300.238 152.539 300.805 151.168 
c h
300.617 146.203 m 300.617 149.23 l 300.617 152.066 298.441 153.105 297.07
 153.105 c 295.605 153.105 294.375 152.066 294.375 150.555 c 294.375 148.898
 295.652 146.395 300.617 146.203 c h
300.617 146.203 m f
311.055 141.383 m 315.406 141.383 l 315.406 140.438 l 311.055 140.438 l
 311.055 134.902 l 310.297 134.902 l 310.297 137.363 309.402 140.578 306.422
 140.719 c 306.422 141.383 l 308.977 141.383 l 308.977 149.703 l 308.977
 153.391 311.812 153.77 312.898 153.77 c 315.027 153.77 315.879 151.641 
315.879 149.703 c 315.879 148 l 315.121 148 l 315.121 149.656 l 315.121 
151.879 314.223 153.012 313.09 153.012 c 311.055 153.012 311.055 150.27 
311.055 149.75 c h
311.055 141.383 m f
322.922 140.105 m 318.711 140.438 l 318.711 141.383 l 320.652 141.383 320.934
 141.57 320.934 143.035 c 320.934 151.168 l 320.934 152.492 320.605 152.492
 318.57 152.492 c 318.57 153.438 l 319.516 153.391 321.172 153.344 321.879
 153.344 c 322.969 153.344 324.008 153.391 325.047 153.438 c 325.047 152.492
 l 323.016 152.492 322.922 152.352 322.922 151.168 c h
323.016 134.855 m 323.016 133.91 322.305 133.25 321.453 133.25 c 320.508
 133.25 319.848 134.055 319.848 134.855 c 319.848 135.66 320.508 136.465
 321.453 136.465 c 322.305 136.465 323.016 135.801 323.016 134.855 c h
323.016 134.855 m f
329.5 146.867 m 329.5 141.949 331.957 140.672 333.562 140.672 c 333.848
 140.672 335.738 140.719 336.777 141.809 c 335.551 141.902 335.359 142.801
 335.359 143.18 c 335.359 143.98 335.93 144.551 336.73 144.551 c 337.535
 144.551 338.148 144.078 338.148 143.129 c 338.148 141.098 335.832 139.914
 333.516 139.914 c 329.734 139.914 326.992 143.18 326.992 146.914 c 326.992
 150.789 329.973 153.77 333.469 153.77 c 337.488 153.77 338.48 150.129 338.48
 149.844 c 338.48 149.562 338.148 149.562 338.055 149.562 c 337.82 149.562
 337.727 149.656 337.676 149.844 c 336.828 152.633 334.84 153.012 333.754
 153.012 c 332.145 153.012 329.5 151.734 329.5 146.867 c h
329.5 146.867 m f
345.637 147.574 m 346.301 147.715 348.758 148.191 348.758 150.363 c 348.758
 151.879 347.719 153.105 345.352 153.105 c 342.801 153.105 341.711 151.406
 341.145 148.805 c 341.051 148.426 341.051 148.332 340.719 148.332 c 340.34
 148.332 340.34 148.52 340.34 149.039 c 340.34 153.059 l 340.34 153.578 
340.34 153.77 340.672 153.77 c 340.816 153.77 340.863 153.723 341.43 153.152
 c 341.477 153.105 341.477 153.059 342.043 152.492 c 343.367 153.723 344.738
 153.77 345.352 153.77 c 348.805 153.77 350.223 151.734 350.223 149.562 
c 350.223 148 349.324 147.055 348.945 146.723 c 347.953 145.73 346.773 145.496
 345.496 145.258 c 343.793 144.926 341.809 144.551 341.809 142.801 c 341.809
 141.711 342.562 140.484 345.164 140.484 c 348.473 140.484 348.664 143.227
 348.711 144.125 c 348.711 144.406 348.992 144.406 349.043 144.406 c 349.465
 144.406 349.465 144.266 349.465 143.699 c 349.465 140.625 l 349.465 140.152
 349.465 139.914 349.137 139.914 c 348.992 139.914 348.898 139.914 348.52
 140.293 c 348.426 140.387 348.145 140.672 348 140.766 c 346.867 139.914
 345.637 139.914 345.164 139.914 c 341.477 139.914 340.34 141.949 340.34
 143.652 c 340.34 144.691 340.816 145.543 341.617 146.203 c 342.609 146.961
 343.461 147.148 345.637 147.574 c h
345.637 147.574 m f
1 g
398.211 67.152 162.652 116.539 re f
0 g
q 1 0 0 1 0 0 cm
398.211 67.152 162.652 116.539 re S Q
416.629 129.402 m 416.629 124.16 419.25 122.801 420.965 122.801 c 421.266
 122.801 423.281 122.852 424.391 124.012 c 423.078 124.113 422.879 125.07
 422.879 125.473 c 422.879 126.328 423.484 126.934 424.34 126.934 c 425.195
 126.934 425.852 126.43 425.852 125.422 c 425.852 123.254 423.383 121.996
 420.914 121.996 c 416.883 121.996 413.957 125.473 413.957 129.453 c 413.957
 133.586 417.133 136.762 420.863 136.762 c 425.145 136.762 426.203 132.879
 426.203 132.578 c 426.203 132.277 425.852 132.277 425.75 132.277 c 425.5
 132.277 425.398 132.375 425.348 132.578 c 424.441 135.551 422.324 135.953
 421.164 135.953 c 419.449 135.953 416.629 134.594 416.629 129.402 c h
416.629 129.402 m f
442.246 129.504 m 442.246 125.422 439.07 121.996 435.191 121.996 c 431.16
 121.996 428.035 125.523 428.035 129.504 c 428.035 133.688 431.363 136.762
 435.141 136.762 c 439.023 136.762 442.246 133.586 442.246 129.504 c h
435.191 135.953 m 433.781 135.953 432.371 135.301 431.512 133.789 c 430.707
 132.375 430.707 130.41 430.707 129.25 c 430.707 127.992 430.707 126.277
 431.461 124.867 c 432.32 123.406 433.832 122.699 435.141 122.699 c 436.551
 122.699 437.914 123.406 438.77 124.816 c 439.625 126.18 439.625 128.043
 439.625 129.25 c 439.625 130.41 439.625 132.176 438.922 133.586 c 438.164
 135.047 436.754 135.953 435.191 135.953 c h
435.191 135.953 m f
446.723 125.371 m 446.723 133.988 l 446.723 135.398 446.367 135.398 444.203
 135.398 c 444.203 136.406 l 445.359 136.355 446.973 136.309 447.883 136.309
 c 448.688 136.309 450.352 136.355 451.457 136.406 c 451.457 135.398 l 449.293
 135.398 448.938 135.398 448.938 133.988 c 448.938 128.043 l 448.938 124.715
 451.258 122.902 453.273 122.902 c 455.34 122.902 455.691 124.617 455.691
 126.48 c 455.691 133.988 l 455.691 135.398 455.34 135.398 453.172 135.398
 c 453.172 136.406 l 454.281 136.355 455.945 136.309 456.801 136.309 c 457.605
 136.309 459.32 136.355 460.379 136.406 c 460.379 135.398 l 458.715 135.398
 457.91 135.398 457.91 134.441 c 457.91 128.293 l 457.91 125.523 457.91 
124.566 456.902 123.406 c 456.449 122.852 455.391 122.195 453.523 122.195
 c 451.156 122.195 449.645 123.559 448.738 125.574 c 448.738 122.195 l 444.203
 122.551 l 444.203 123.559 l 446.469 123.559 446.723 123.758 446.723 125.371
 c h
446.723 125.371 m f
465.691 123.559 m 470.328 123.559 l 470.328 122.551 l 465.691 122.551 l
 465.691 116.652 l 464.883 116.652 l 464.883 119.273 463.926 122.699 460.75
 122.852 c 460.75 123.559 l 463.473 123.559 l 463.473 132.426 l 463.473 
136.355 466.496 136.762 467.656 136.762 c 469.922 136.762 470.832 134.492
 470.832 132.426 c 470.832 130.613 l 470.023 130.613 l 470.023 132.375 l
 470.023 134.746 469.066 135.953 467.855 135.953 c 465.691 135.953 465.691
 133.031 465.691 132.477 c h
465.691 123.559 m f
478.035 125.723 m 478.035 122.195 l 473.551 122.551 l 473.551 123.559 l
 475.816 123.559 476.07 123.758 476.07 125.371 c 476.07 133.988 l 476.07
 135.398 475.715 135.398 473.551 135.398 c 473.551 136.406 l 474.809 136.355
 476.32 136.309 477.23 136.309 c 478.488 136.309 480 136.309 481.309 136.406
 c 481.309 135.398 l 480.605 135.398 l 478.238 135.398 478.188 135.047 478.188
 133.887 c 478.188 128.949 l 478.188 125.773 479.547 122.902 481.965 122.902
 c 482.168 122.902 482.27 122.902 482.316 122.953 c 482.219 122.953 481.562
 123.355 481.562 124.211 c 481.562 125.07 482.27 125.574 482.973 125.574
 c 483.527 125.574 484.336 125.172 484.336 124.16 c 484.336 123.152 483.328
 122.195 481.965 122.195 c 479.598 122.195 478.438 124.363 478.035 125.723
 c h
478.035 125.723 m f
500.348 129.504 m 500.348 125.422 497.172 121.996 493.293 121.996 c 489.262
 121.996 486.137 125.523 486.137 129.504 c 486.137 133.688 489.461 136.762
 493.242 136.762 c 497.121 136.762 500.348 133.586 500.348 129.504 c h
493.293 135.953 m 491.879 135.953 490.469 135.301 489.613 133.789 c 488.805
 132.375 488.805 130.41 488.805 129.25 c 488.805 127.992 488.805 126.277
 489.562 124.867 c 490.418 123.406 491.93 122.699 493.242 122.699 c 494.652
 122.699 496.012 123.406 496.871 124.816 c 497.727 126.18 497.727 128.043
 497.727 129.25 c 497.727 130.41 497.727 132.176 497.02 133.586 c 496.266
 135.047 494.855 135.953 493.293 135.953 c h
493.293 135.953 m f
506.988 114.082 m 502.352 114.438 l 502.352 115.445 l 504.621 115.445 504.871
 115.645 504.871 117.258 c 504.871 133.988 l 504.871 135.398 504.52 135.398
 502.352 135.398 c 502.352 136.406 l 503.41 136.355 505.125 136.309 505.93
 136.309 c 506.738 136.309 508.301 136.355 509.508 136.406 c 509.508 135.398
 l 507.34 135.398 506.988 135.398 506.988 133.988 c h
506.988 114.082 m f
515.914 114.082 m 511.277 114.438 l 511.277 115.445 l 513.547 115.445 513.797
 115.645 513.797 117.258 c 513.797 133.988 l 513.797 135.398 513.445 135.398
 511.277 135.398 c 511.277 136.406 l 512.336 136.355 514.051 136.309 514.855
 136.309 c 515.664 136.309 517.227 136.355 518.434 136.406 c 518.434 135.398
 l 516.266 135.398 515.914 135.398 515.914 133.988 c h
515.914 114.082 m f
522.723 128.293 m 522.926 123.508 525.648 122.699 526.754 122.699 c 530.031
 122.699 530.383 127.035 530.383 128.293 c h
522.723 129 m 531.695 129 l 532.398 129 532.5 129 532.5 128.293 c 532.5
 125.121 530.738 121.996 526.754 121.996 c 523.027 121.996 520.055 125.32
 520.055 129.352 c 520.055 133.637 523.43 136.762 527.109 136.762 c 531.039
 136.762 532.5 133.184 532.5 132.578 c 532.5 132.277 532.25 132.176 532.047
 132.176 c 531.797 132.176 531.695 132.375 531.645 132.629 c 530.535 135.953
 527.613 135.953 527.309 135.953 c 525.699 135.953 524.438 134.996 523.684
 133.789 c 522.723 132.277 522.723 130.16 522.723 129 c h
522.723 129 m f
538.816 125.723 m 538.816 122.195 l 534.332 122.551 l 534.332 123.559 l
 536.602 123.559 536.852 123.758 536.852 125.371 c 536.852 133.988 l 536.852
 135.398 536.5 135.398 534.332 135.398 c 534.332 136.406 l 535.594 136.355
 537.105 136.309 538.012 136.309 c 539.27 136.309 540.781 136.309 542.094
 136.406 c 542.094 135.398 l 541.387 135.398 l 539.02 135.398 538.969 135.047
 538.969 133.887 c 538.969 128.949 l 538.969 125.773 540.328 122.902 542.75
 122.902 c 542.949 122.902 543.051 122.902 543.102 122.953 c 543 122.953
 542.344 123.355 542.344 124.211 c 542.344 125.07 543.051 125.574 543.758
 125.574 c 544.312 125.574 545.117 125.172 545.117 124.16 c 545.117 123.152
 544.109 122.195 542.75 122.195 c 540.379 122.195 539.223 124.363 538.816
 125.723 c h
538.816 125.723 m f
1 g
596.594 67.152 162.656 116.539 re f
0 g
q 1 0 0 1 0 0 cm
596.594 67.152 162.656 116.539 re S Q
645.785 125.723 m 645.785 122.195 l 641.301 122.551 l 641.301 123.559 l
 643.566 123.559 643.82 123.758 643.82 125.371 c 643.82 133.988 l 643.82
 135.398 643.465 135.398 641.301 135.398 c 641.301 136.406 l 642.559 136.355
 644.07 136.309 644.977 136.309 c 646.238 136.309 647.75 136.309 649.059
 136.406 c 649.059 135.398 l 648.355 135.398 l 645.984 135.398 645.938 135.047
 645.938 133.887 c 645.938 128.949 l 645.938 125.773 647.297 122.902 649.715
 122.902 c 649.918 122.902 650.02 122.902 650.066 122.953 c 649.969 122.953
 649.312 123.355 649.312 124.211 c 649.312 125.07 650.02 125.574 650.723
 125.574 c 651.277 125.574 652.082 125.172 652.082 124.16 c 652.082 123.152
 651.074 122.195 649.715 122.195 c 647.348 122.195 646.188 124.363 645.785
 125.723 c h
645.785 125.723 m f
668.098 129.504 m 668.098 125.422 664.922 121.996 661.043 121.996 c 657.008
 121.996 653.887 125.523 653.887 129.504 c 653.887 133.688 657.211 136.762
 660.992 136.762 c 664.871 136.762 668.098 133.586 668.098 129.504 c h
661.043 135.953 m 659.629 135.953 658.219 135.301 657.363 133.789 c 656.555
 132.375 656.555 130.41 656.555 129.25 c 656.555 127.992 656.555 126.277
 657.312 124.867 c 658.168 123.406 659.68 122.699 660.992 122.699 c 662.402
 122.699 663.762 123.406 664.621 124.816 c 665.477 126.18 665.477 128.043
 665.477 129.25 c 665.477 130.41 665.477 132.176 664.77 133.586 c 664.016
 135.047 662.602 135.953 661.043 135.953 c h
661.043 135.953 m f
674.586 124.262 m 674.586 114.082 l 669.949 114.438 l 669.949 115.445 l
 672.219 115.445 672.469 115.645 672.469 117.258 c 672.469 136.406 l 673.277
 136.406 l 673.277 136.355 673.527 135.902 674.438 134.391 c 674.891 135.148
 676.25 136.762 678.617 136.762 c 682.449 136.762 685.773 133.586 685.773
 129.453 c 685.773 125.371 682.648 122.195 678.973 122.195 c 676.453 122.195
 675.09 123.707 674.586 124.262 c h
674.688 132.73 m 674.688 126.129 l 674.688 125.523 674.688 125.473 675.039
 124.969 c 676.301 123.152 678.062 122.902 678.82 122.902 c 680.281 122.902
 681.441 123.758 682.195 124.969 c 683.055 126.277 683.105 128.094 683.105
 129.453 c 683.105 130.613 683.055 132.527 682.145 133.988 c 681.441 134.996
 680.23 136.055 678.52 136.055 c 677.055 136.055 675.898 135.301 675.141
 134.09 c 674.688 133.434 674.688 133.332 674.688 132.73 c h
674.688 132.73 m f
702.914 129.504 m 702.914 125.422 699.738 121.996 695.859 121.996 c 691.828
 121.996 688.703 125.523 688.703 129.504 c 688.703 133.688 692.027 136.762
 695.809 136.762 c 699.688 136.762 702.914 133.586 702.914 129.504 c h
695.859 135.953 m 694.449 135.953 693.035 135.301 692.18 133.789 c 691.375
 132.375 691.375 130.41 691.375 129.25 c 691.375 127.992 691.375 126.277
 692.129 124.867 c 692.984 123.406 694.5 122.699 695.809 122.699 c 697.219
 122.699 698.578 123.406 699.438 124.816 c 700.293 126.18 700.293 128.043
 700.293 129.25 c 700.293 130.41 700.293 132.176 699.586 133.586 c 698.832
 135.047 697.422 135.953 695.859 135.953 c h
695.859 135.953 m f
709.406 123.559 m 714.039 123.559 l 714.039 122.551 l 709.406 122.551 l
 709.406 116.652 l 708.598 116.652 l 708.598 119.273 707.641 122.699 704.465
 122.852 c 704.465 123.559 l 707.188 123.559 l 707.188 132.426 l 707.188
 136.355 710.211 136.762 711.371 136.762 c 713.637 136.762 714.543 134.492
 714.543 132.426 c 714.543 130.613 l 713.738 130.613 l 713.738 132.375 l
 713.738 134.746 712.781 135.953 711.57 135.953 c 709.406 135.953 709.406
 133.031 709.406 132.477 c h
709.406 123.559 m f
1 g
1.441 67.152 162.652 116.539 re f
0 g
q 1 0 0 1 0 0 cm
1.441 67.152 162.652 116.539 re S Q
21.219 120.246 m 25.668 120.246 l 25.668 119.281 l 21.219 119.281 l 21.219
 113.621 l 20.445 113.621 l 20.445 116.137 19.527 119.426 16.48 119.57 c
 16.48 120.246 l 19.09 120.246 l 19.09 128.758 l 19.09 132.531 21.992 132.918
 23.105 132.918 c 25.281 132.918 26.152 130.742 26.152 128.758 c 26.152 
127.02 l 25.379 127.02 l 25.379 128.711 l 25.379 130.984 24.457 132.145 
23.297 132.145 c 21.219 132.145 21.219 129.34 21.219 128.809 c h
21.219 120.246 m f
33.062 122.328 m 33.062 118.941 l 28.762 119.281 l 28.762 120.246 l 30.938
 120.246 31.18 120.441 31.18 121.988 c 31.18 130.258 l 31.18 131.613 30.84
 131.613 28.762 131.613 c 28.762 132.578 l 29.969 132.531 31.418 132.48 
32.289 132.48 c 33.5 132.48 34.949 132.48 36.207 132.578 c 36.207 131.613
 l 35.531 131.613 l 33.258 131.613 33.211 131.273 33.211 130.16 c 33.211
 125.422 l 33.211 122.375 34.516 119.617 36.836 119.617 c 37.027 119.617
 37.125 119.617 37.176 119.668 c 37.078 119.668 36.449 120.055 36.449 120.875
 c 36.449 121.699 37.125 122.184 37.805 122.184 c 38.336 122.184 39.109 
121.797 39.109 120.828 c 39.109 119.859 38.141 118.941 36.836 118.941 c 
34.562 118.941 33.449 121.02 33.062 122.328 c h
33.062 122.328 m f
50.219 130.258 m 50.363 131.465 51.188 132.773 52.637 132.773 c 53.312 
132.773 55.199 132.336 55.199 129.824 c 55.199 128.082 l 54.426 128.082 
l 54.426 129.824 l 54.426 131.613 53.652 131.805 53.312 131.805 c 52.297
 131.805 52.152 130.402 52.152 130.258 c 52.152 124.117 l 52.152 122.812
 52.152 121.602 51.039 120.441 c 49.832 119.23 48.285 118.75 46.832 118.75
 c 44.27 118.75 42.145 120.199 42.145 122.23 c 42.145 123.148 42.773 123.68
 43.594 123.68 c 44.465 123.68 44.996 123.051 44.996 122.277 c 44.996 121.891
 44.852 120.875 43.398 120.875 c 44.27 119.766 45.77 119.426 46.738 119.426
 c 48.285 119.426 50.023 120.633 50.023 123.391 c 50.023 124.504 l 48.43
 124.602 46.301 124.695 44.367 125.617 c 42.047 126.68 41.273 128.273 41.273
 129.629 c 41.273 132.145 44.27 132.918 46.203 132.918 c 48.234 132.918 
49.637 131.66 50.219 130.258 c h
50.023 125.18 m 50.023 128.273 l 50.023 131.176 47.801 132.238 46.398 132.238
 c 44.898 132.238 43.641 131.176 43.641 129.629 c 43.641 127.938 44.949 
125.375 50.023 125.18 c h
50.023 125.18 m f
63.559 118.941 m 58.867 119.281 l 58.867 120.246 l 61.238 120.246 61.527
 120.441 61.527 121.988 c 61.527 134.176 l 61.527 135.578 61.238 138.238
 59.254 138.238 c 59.109 138.238 58.383 138.238 57.609 137.801 c 58.047 
137.703 58.676 137.27 58.676 136.445 c 58.676 135.625 58.145 134.996 57.273
 134.996 c 56.402 134.996 55.82 135.625 55.82 136.445 c 55.82 138.043 57.562
 138.914 59.352 138.914 c 61.625 138.914 63.559 136.93 63.559 134.125 c 
h
63.559 113.574 m 63.559 112.656 62.832 111.93 61.914 111.93 c 61.043 111.93
 60.27 112.656 60.27 113.574 c 60.27 114.445 61.043 115.219 61.914 115.219
 c 62.832 115.219 63.559 114.445 63.559 113.574 c h
63.559 113.574 m f
69.934 124.793 m 70.129 120.199 72.738 119.426 73.805 119.426 c 76.945 
119.426 77.285 123.586 77.285 124.793 c h
69.934 125.469 m 78.543 125.469 l 79.219 125.469 79.316 125.469 79.316 
124.793 c 79.316 121.746 77.625 118.75 73.805 118.75 c 70.227 118.75 67.371
 121.941 67.371 125.809 c 67.371 129.918 70.613 132.918 74.141 132.918 c
 77.914 132.918 79.316 129.484 79.316 128.902 c 79.316 128.613 79.074 128.516
 78.879 128.516 c 78.641 128.516 78.543 128.711 78.492 128.953 c 77.43 132.145
 74.625 132.145 74.336 132.145 c 72.789 132.145 71.578 131.227 70.852 130.062
 c 69.934 128.613 69.934 126.582 69.934 125.469 c h
69.934 125.469 m f
83.832 125.855 m 83.832 120.828 86.344 119.523 87.988 119.523 c 88.277 
119.523 90.215 119.57 91.277 120.684 c 90.02 120.781 89.828 121.699 89.828
 122.086 c 89.828 122.906 90.406 123.488 91.23 123.488 c 92.051 123.488 
92.68 123.004 92.68 122.035 c 92.68 119.957 90.309 118.75 87.941 118.75 
c 84.07 118.75 81.266 122.086 81.266 125.906 c 81.266 129.871 84.312 132.918
 87.891 132.918 c 92.004 132.918 93.02 129.195 93.02 128.902 c 93.02 128.613
 92.68 128.613 92.582 128.613 c 92.34 128.613 92.246 128.711 92.195 128.902
 c 91.324 131.758 89.293 132.145 88.184 132.145 c 86.539 132.145 83.832 
130.836 83.832 125.855 c h
83.832 125.855 m f
99.254 120.246 m 103.703 120.246 l 103.703 119.281 l 99.254 119.281 l 99.254
 113.621 l 98.48 113.621 l 98.48 116.137 97.562 119.426 94.516 119.57 c 
94.516 120.246 l 97.129 120.246 l 97.129 128.758 l 97.129 132.531 100.027
 132.918 101.141 132.918 c 103.316 132.918 104.188 130.742 104.188 128.758
 c 104.188 127.02 l 103.414 127.02 l 103.414 128.711 l 103.414 130.984 102.496
 132.145 101.336 132.145 c 99.254 132.145 99.254 129.34 99.254 128.809 c
 h
99.254 120.246 m f
120.434 125.953 m 120.434 122.035 117.387 118.75 113.664 118.75 c 109.797
 118.75 106.797 122.133 106.797 125.953 c 106.797 129.969 109.988 132.918
 113.617 132.918 c 117.34 132.918 120.434 129.871 120.434 125.953 c h
113.664 132.145 m 112.309 132.145 110.957 131.516 110.133 130.062 c 109.359
 128.711 109.359 126.824 109.359 125.711 c 109.359 124.504 109.359 122.859
 110.086 121.504 c 110.906 120.102 112.359 119.426 113.617 119.426 c 114.969
 119.426 116.273 120.102 117.098 121.457 c 117.918 122.762 117.918 124.551
 117.918 125.711 c 117.918 126.824 117.918 128.516 117.242 129.871 c 116.516
 131.273 115.164 132.145 113.664 132.145 c h
113.664 132.145 m f
126.516 122.328 m 126.516 118.941 l 122.215 119.281 l 122.215 120.246 l
 124.391 120.246 124.633 120.441 124.633 121.988 c 124.633 130.258 l 124.633
 131.613 124.293 131.613 122.215 131.613 c 122.215 132.578 l 123.422 132.531
 124.875 132.48 125.742 132.48 c 126.953 132.48 128.402 132.48 129.66 132.578
 c 129.66 131.613 l 128.984 131.613 l 126.711 131.613 126.664 131.273 126.664
 130.16 c 126.664 125.422 l 126.664 122.375 127.969 119.617 130.289 119.617
 c 130.484 119.617 130.578 119.617 130.629 119.668 c 130.531 119.668 129.902
 120.055 129.902 120.875 c 129.902 121.699 130.578 122.184 131.258 122.184
 c 131.789 122.184 132.562 121.797 132.562 120.828 c 132.562 119.859 131.594
 118.941 130.289 118.941 c 128.016 118.941 126.902 121.02 126.516 122.328
 c h
126.516 122.328 m f
146.203 122.23 m 146.977 120.246 148.574 120.246 149.059 120.246 c 149.059
 119.281 l 148.332 119.328 147.461 119.379 146.734 119.379 c 146.203 119.379
 144.754 119.328 144.078 119.281 c 144.078 120.246 l 145.043 120.246 145.527
 120.781 145.527 121.555 c 145.527 121.891 145.48 121.941 145.332 122.328
 c 142.191 129.871 l 138.805 121.602 l 138.66 121.262 138.613 121.168 138.613
 121.02 c 138.613 120.246 139.723 120.246 140.352 120.246 c 140.352 119.281
 l 139.531 119.328 137.5 119.379 136.969 119.379 c 136.145 119.379 134.887
 119.328 133.969 119.281 c 133.969 120.246 l 135.469 120.246 136.051 120.246
 136.484 121.312 c 141.125 132.578 l 140.934 132.965 140.496 133.98 140.352
 134.418 c 139.676 136.109 138.805 138.238 136.824 138.238 c 136.676 138.238
 135.953 138.238 135.371 137.656 c 136.34 137.559 136.582 136.883 136.582
 136.352 c 136.582 135.578 136 135.094 135.273 135.094 c 134.648 135.094
 133.969 135.48 133.969 136.398 c 133.969 137.801 135.273 138.914 136.824
 138.914 c 138.758 138.914 140.016 137.125 140.738 135.383 c h
146.203 122.23 m f
2.834646 w
q 1 0 0 1 0 0 cm
164.262 126.535 m 190.59 126.535 l S Q
197.129 126.535 m 187.324 132.203 l 187.324 120.863 l h
197.129 126.535 m f*
1.511811 w
q 1 0 0 1 0 0 cm
197.129 126.535 m 187.324 132.203 l 187.324 120.863 l h
197.129 126.535 m S Q
2.834646 w
q 1 0 0 1 0 0 cm
363.188 126.535 m 388.805 126.535 l S Q
395.348 126.535 m 385.539 132.203 l 385.539 120.863 l h
395.348 126.535 m f*
1.511811 w
q 1 0 0 1 0 0 cm
395.348 126.535 m 385.539 132.203 l 385.539 120.863 l h
395.348 126.535 m S Q
2.834646 w
q 1 0 0 1 0 0 cm
561.68 126.535 m 587.16 126.535 l S Q
593.703 126.535 m 583.895 132.203 l 583.895 120.863 l h
593.703 126.535 m f*
1.511811 w
q 1 0 0 1 0 0 cm
593.703 126.535 m 583.895 132.203 l 583.895 120.863 l h
593.703 126.535 m S Q
2.834646 w
q 1 0 0 1 0 0 cm
679.832 66.539 m 679.832 1.418 l 482.445 1.418 l 482.445 57.777 l S Q
482.445 64.32 m 476.777 54.512 l 488.117 54.512 l h
482.445 64.32 m f*
1.511811 w
q 0 1 -1 0 0 0 cm
64.32 -482.445 m 54.512 -476.777 l 54.512 -488.117 l h
64.32 -482.445 m S Q
Q Q
showpage
%%Trailer
end
%%EOF
